package rules.Preupdate.PaymentRequestPreupdate_dir.TDIC_WC100000_dir

uses org.slf4j.LoggerFactory

@gw.rules.RuleName("TDIC_PRPU130000 - Final Audit activity on APW")
internal class TDIC_PRPU130000FinalAuditactivityonAPW {
  static function doCondition(paymentRequest : entity.PaymentRequest) : boolean {
/*start00rule*/
return paymentRequest.New && paymentRequest.Invoice != null
/*end00rule*/
}

  static function doAction(paymentRequest : entity.PaymentRequest, actions : gw.rules.Action) {
/*start00rule*/
 if(paymentRequest.Invoice.InvoiceStream?.PolicyPeriod_TDIC?.Charges?.hasMatch(\ch ->
     ch.BillingInstruction typeis Audit and ch?.Amount > 500bd.ofDefaultCurrency())){
   var actvty = new Activity()
   actvty.ActivityPattern = gw.api.web.admin.ActivityPatternsUtil.getActivityPattern("audit_over_threshold_apw")
   actvty.Priority = Priority.TC_HIGH
   actvty.PolicyPeriod = paymentRequest.Invoice.InvoiceStream.PolicyPeriod_TDIC
   var groupName = gw.command.demo.GeneralUtil.findGroupByUserName("Service - Audit")
   var queueName = groupName.getQueue("Service - Audit")
   if (actvty?.assignGroup(groupName) and queueName != null) {
     actvty.assignActivityToQueue(queueName, groupName)
   }
   var _logger = LoggerFactory.getLogger("Rules")
   if (actvty.assignActivityToQueue(queueName, groupName)) {
     _logger.debug("PaymentRequestPreupdate - audit activity assignment successful. Assigned Queue : " + actvty.AssignedQueue.DisplayName)
   }
   else {
     _logger.warn("PaymentRequestPreupdate - audit activity : " + actvty.ActivityPattern.DisplayName)
   }
 }
    actions.exit()
/*end00rule*/
  }
}
