package rules.Preupdate.PaymentRequestPreupdate_dir.TDIC_WC100000_dir

uses gw.api.system.BCLoggerCategory
uses java.math.BigDecimal
uses org.slf4j.LoggerFactory

@gw.rules.RuleName("TDIC_PRPU120000 - Set Amount to Invoice Amount Due")
internal class TDIC_PRPU120000SetAmounttoInvoiceAmountDue {
  static function doCondition(paymentRequest : entity.PaymentRequest) : boolean {
/*start00rule*/
return paymentRequest.New && paymentRequest.Invoice != null
/*end00rule*/
}

  static function doAction(paymentRequest : entity.PaymentRequest, actions : gw.rules.Action) {
/*start00rule*/
  /**
   * US1158 - EFT Reversals
   * 3/12/2015 Alvin Lee
   *
   * Set the payment request amount to the amount due on the invoice.  If there is no amount due on the invoice, cancel
   * the payment request.
   */
if (!paymentRequest.Amount.IsPositive) {
LoggerFactory.getLogger("Rules").info("TDIC_PRPU120000 - Set Amount to Invoice Amount Due - Payment Request has been created for Invoice "
    + paymentRequest.Invoice.InvoiceNumber + " in the amount of " + paymentRequest.Amount + " for Account "
    + paymentRequest.Account + ", but the invoice does not have an amount due.  Cancelling the payment request.")
  paymentRequest.cancelRequest()
}
if(paymentRequest.Amount != paymentRequest.Invoice.AmountDue) {
  LoggerFactory.getLogger("Rules").debug("TDIC_PRPU120000 - Set Amount to Invoice Amount Due - Payment Request created for Invoice "
      + paymentRequest.Invoice.InvoiceNumber + " in the amount of " + paymentRequest.Amount + " for Account "
      + paymentRequest.Account + ". Adjusting amount to the Invoice Amount Due: " + paymentRequest.Invoice.AmountDue)
  paymentRequest.Amount = paymentRequest.Invoice.AmountDue
}

   var totalAmountDue = paymentRequest.Invoice.InvoiceStream?.PolicyPeriod_TDIC?.AmountBilledOrDue_TDIC
if (totalAmountDue > paymentRequest.Amount){
      LoggerFactory.getLogger("Rules").debug("TDIC_PRPU120000 - Set Amount to Invoice Amount Due - Payment Request created for Invoice "
          + paymentRequest.Invoice.InvoiceNumber + " in the amount of " + paymentRequest.Amount + " for Account "
          + paymentRequest.Account + ". Adjusting amount to the Total Amount Due: " + totalAmountDue)
     paymentRequest.Amount = totalAmountDue
}






/*end00rule*/
  }
}
