package rules.Preupdate.InvoicePreupdate_dir.TDIC_WC100000_dir

uses tdic.bc.config.invoice.InvoiceUtil
uses org.slf4j.LoggerFactory

@gw.rules.RuleDisabled
@gw.rules.RuleName("ResendInvoice")
internal class ResendInvoice {
  static function doCondition(invoice : entity.Invoice) : boolean {
/*start00rule*/
// Ignore planned or invoices moving from planned to billed.
    return invoice.Status != InvoiceStatus.TC_PLANNED
        and invoice.getOriginalValue(Invoice#Status) != InvoiceStatus.TC_PLANNED
        and invoice.AmountDue != invoice.getOriginalValue(Invoice#AmountDue);
/*end00rule*/
  }

  static function doAction(invoice : entity.Invoice, actions : gw.rules.Action) {
/*start00rule*/
    var logger = LoggerFactory.getLogger("Application.Invoice");
    logger.info ("Adding Invoice " + invoice.InvoiceNumber + " to the resend list because the amount due changed from "
        + invoice.getOriginalValue(Invoice#AmountDue) + " to " + invoice.AmountDue);
    InvoiceUtil.addToResendList(invoice);
    actions.exit()
/*end00rule*/
  }
}
