package rules.EventMessage.EventFired_dir.TDIC_ALL100000_dir.EFR1100BankEFT_dir


@gw.rules.RuleName("EFR1200 - Payment Request")
internal class EFR1200PaymentRequest {
  static function doCondition(messageContext     :     entity.MessageContext) : boolean {
/*start00rule*/
return messageContext.Root typeis entity.PaymentRequest
/*end00rule*/
}

  static function doAction(messageContext     :     entity.MessageContext, actions : gw.rules.Action) {
/*start00rule*/
 
/*end00rule*/
  }
}
