package rules.EventMessage.EventFired_dir.TDIC_ALL100000_dir.EFR1100BankEFT_dir

uses org.slf4j.LoggerFactory


@gw.rules.RuleName("EFR2200 - Account")
internal class EFR2200Account {
  static function doCondition(messageContext  :  entity.MessageContext) : boolean {
/*start00rule*/
    var _logger = LoggerFactory.getLogger("Rules")
    _logger.info("Root Entity Account - Debug start EFT Prenote")
    _logger.info("Event occured is: " + messageContext.EventName)
    return messageContext.Root typeis Account
/*end00rule*/
}

  static function doAction(messageContext  :  entity.MessageContext, actions : gw.rules.Action) {
/*start00rule*/


/*end00rule*/
  }
}
