package rules.Preupdate.ActivityPreupdate_dir.TDIC_WC100000_dir.TDIC_ACTPU110000NewActivity_dir

uses gw.api.system.BCLoggerCategory
uses org.slf4j.LoggerFactory

@gw.rules.RuleName("TDIC_ACTPU118000 - Set Entities On NegWrofApprActivity")
internal class TDIC_ACTPU118000SetEntitiesOnNegWrofApprActivity {
  static function doCondition(activity : entity.Activity) : boolean {
/*start00rule*/
return activity typeis NegWrofApprActivity
/*end00rule*/
}

  static function doAction(activity : entity.Activity, actions : gw.rules.Action) {
/*start00rule*/
LoggerFactory.getLogger("Rules").debug("TDIC_ACTPU118000 - Set Entities On NegWrofApprActivity - Entering")
var negWriteoffActivity = activity as NegWrofApprActivity
if (negWriteoffActivity.Account == null  && negWriteoffActivity.NegativeWriteoff typeis AcctNegativeWriteoff
    && negWriteoffActivity.NegativeWriteoff.Account != null) {
  LoggerFactory.getLogger("Rules").debug("TDIC_ACTPU118000 - Set Entities On NegWrofApprActivity - Setting Account to "
      + negWriteoffActivity.NegativeWriteoff.Account)
  negWriteoffActivity.Account = negWriteoffActivity.NegativeWriteoff.Account
}
/*end00rule*/
  }
}
