package rules.EventMessage.EventFired_dir.TDIC_ALL100000_dir.TDIC_EFR120000HPExstream_dir.TDIC_EFR128000EndorsementBilling_dir.TDIC_EFR128200APW_dir
uses tdic.bc.integ.plugins.hpexstream.util.TDIC_BCExstreamHelper

@gw.rules.RuleName("TDIC_EFR128210 - Account")
internal class TDIC_EFR128210Account {
  static function doCondition(messageContext  :  entity.MessageContext) : boolean {
/*start00rule*/
return messageContext.Root typeis Account
/*end00rule*/
}

  static function doAction(messageContext  :  entity.MessageContext, actions : gw.rules.Action) {
/*start00rule*/
(new TDIC_BCExstreamHelper()).createBatchMessageForAccount(messageContext)
/*end00rule*/
  }
}
