12:17:06.879 [DEBUG] [org.gradle.launcher.daemon.bootstrap.DaemonMain] Assuming the daemon was started with following jvm opts: [-Xms1g, -Xmx4g, -Dfile.encoding=windows-1252, -Duser.country=US, -Duser.language=en, -Duser.variant]
12:17:06.935 [DEBUG] [org.gradle.internal.nativeintegration.services.NativeServices] Native-platform posix files integration is not available. Continuing with fallback.
12:17:07.010 [INFO] [org.gradle.launcher.daemon.server.Daemon] start() called on daemon - DefaultDaemonContext[uid=0cf14291-75ec-4ead-a9e7-db57ffebdcdb,javaHome=C:\Program Files\Java\jdk1.8.0_201,daemonRegistryDir=D:\Guidewire\gw10base\PolicyCenter1001\gradle\cache\daemon,pid=5584,idleTimeout=120000,daemonOpts=-Xms1g,-Xmx4g,-Dfile.encoding=windows-1252,-Duser.country=US,-Duser.language=en,-Duser.variant]
12:17:07.065 [DEBUG] [org.gradle.internal.remote.internal.inet.InetAddresses] Adding IP addresses for network interface Software Loopback Interface 1
12:17:07.066 [DEBUG] [org.gradle.internal.remote.internal.inet.InetAddresses] Is this a loopback interface? true
12:17:07.067 [DEBUG] [org.gradle.internal.remote.internal.inet.InetAddresses] Is this a multicast interface? true
12:17:07.068 [DEBUG] [org.gradle.internal.remote.internal.inet.InetAddresses] Adding loopback address /127.0.0.1
12:17:07.070 [DEBUG] [org.gradle.internal.remote.internal.inet.InetAddresses] Adding loopback address /0:0:0:0:0:0:0:1
12:17:07.070 [DEBUG] [org.gradle.internal.remote.internal.inet.InetAddresses] Adding loopback multicast interface Software Loopback Interface 1
12:17:07.070 [DEBUG] [org.gradle.internal.remote.internal.inet.InetAddresses] Adding IP addresses for network interface Amazon Elastic Network Adapter
12:17:07.071 [DEBUG] [org.gradle.internal.remote.internal.inet.InetAddresses] Is this a loopback interface? false
12:17:07.072 [DEBUG] [org.gradle.internal.remote.internal.inet.InetAddresses] Is this a multicast interface? true
12:17:07.072 [DEBUG] [org.gradle.internal.remote.internal.inet.InetAddresses] Adding remote address /172.31.117.255
12:17:07.072 [DEBUG] [org.gradle.internal.remote.internal.inet.InetAddresses] Adding remote address /fe80:0:0:0:2104:3a38:c309:87b3%eth0
12:17:07.072 [DEBUG] [org.gradle.internal.remote.internal.inet.InetAddresses] Adding remote multicast interface Amazon Elastic Network Adapter
12:17:07.073 [DEBUG] [org.gradle.internal.remote.internal.inet.InetAddresses] Adding IP addresses for network interface Microsoft Kernel Debug Network Adapter
12:17:07.073 [DEBUG] [org.gradle.internal.remote.internal.inet.InetAddresses] Is this a loopback interface? false
12:17:07.074 [DEBUG] [org.gradle.internal.remote.internal.inet.InetAddresses] Is this a multicast interface? true
12:17:07.074 [DEBUG] [org.gradle.internal.remote.internal.inet.InetAddresses] Adding loopback multicast interface Microsoft Kernel Debug Network Adapter
12:17:07.075 [DEBUG] [org.gradle.internal.remote.internal.inet.InetAddresses] Adding IP addresses for network interface Microsoft ISATAP Adapter
12:17:07.075 [DEBUG] [org.gradle.internal.remote.internal.inet.InetAddresses] Is this a loopback interface? false
12:17:07.076 [DEBUG] [org.gradle.internal.remote.internal.inet.InetAddresses] Is this a multicast interface? false
12:17:07.076 [DEBUG] [org.gradle.internal.remote.internal.inet.InetAddresses] Adding remote address /fe80:0:0:0:0:5efe:ac8:6073%net0
12:17:07.076 [DEBUG] [org.gradle.internal.remote.internal.inet.InetAddresses] Adding IP addresses for network interface AWS PV Network Device #4
12:17:07.077 [DEBUG] [org.gradle.internal.remote.internal.inet.InetAddresses] Is this a loopback interface? false
12:17:07.078 [DEBUG] [org.gradle.internal.remote.internal.inet.InetAddresses] Is this a multicast interface? true
12:17:07.078 [DEBUG] [org.gradle.internal.remote.internal.inet.InetAddresses] Adding loopback multicast interface AWS PV Network Device #4
12:17:07.078 [DEBUG] [org.gradle.internal.remote.internal.inet.InetAddresses] Adding IP addresses for network interface Amazon Elastic Network Adapter #2
12:17:07.079 [DEBUG] [org.gradle.internal.remote.internal.inet.InetAddresses] Is this a loopback interface? false
12:17:07.080 [DEBUG] [org.gradle.internal.remote.internal.inet.InetAddresses] Is this a multicast interface? true
12:17:07.080 [DEBUG] [org.gradle.internal.remote.internal.inet.InetAddresses] Adding remote address /10.200.96.115
12:17:07.080 [DEBUG] [org.gradle.internal.remote.internal.inet.InetAddresses] Adding remote address /fe80:0:0:0:5c72:6600:8568:7879%eth3
12:17:07.080 [DEBUG] [org.gradle.internal.remote.internal.inet.InetAddresses] Adding remote multicast interface Amazon Elastic Network Adapter #2
12:17:07.080 [DEBUG] [org.gradle.internal.remote.internal.inet.InetAddresses] Adding IP addresses for network interface AWS PV Network Device #3
12:17:07.081 [DEBUG] [org.gradle.internal.remote.internal.inet.InetAddresses] Is this a loopback interface? false
12:17:07.082 [DEBUG] [org.gradle.internal.remote.internal.inet.InetAddresses] Is this a multicast interface? true
12:17:07.082 [DEBUG] [org.gradle.internal.remote.internal.inet.InetAddresses] Adding loopback multicast interface AWS PV Network Device #3
12:17:07.082 [DEBUG] [org.gradle.internal.remote.internal.inet.InetAddresses] Adding IP addresses for network interface Teredo Tunneling Pseudo-Interface
12:17:07.083 [DEBUG] [org.gradle.internal.remote.internal.inet.InetAddresses] Is this a loopback interface? false
12:17:07.084 [DEBUG] [org.gradle.internal.remote.internal.inet.InetAddresses] Is this a multicast interface? true
12:17:07.084 [DEBUG] [org.gradle.internal.remote.internal.inet.InetAddresses] Adding loopback multicast interface Teredo Tunneling Pseudo-Interface
12:17:07.084 [DEBUG] [org.gradle.internal.remote.internal.inet.InetAddresses] Adding IP addresses for network interface Microsoft ISATAP Adapter #2
12:17:07.085 [DEBUG] [org.gradle.internal.remote.internal.inet.InetAddresses] Is this a loopback interface? false
12:17:07.085 [DEBUG] [org.gradle.internal.remote.internal.inet.InetAddresses] Is this a multicast interface? false
12:17:07.086 [DEBUG] [org.gradle.internal.remote.internal.inet.InetAddresses] Adding remote address /fe80:0:0:0:0:5efe:ac1f:75ff%net2
12:17:07.086 [DEBUG] [org.gradle.internal.remote.internal.inet.InetAddresses] Adding IP addresses for network interface Amazon Elastic Network Adapter #2-WFP Native MAC Layer LightWeight Filter-0000
12:17:07.086 [DEBUG] [org.gradle.internal.remote.internal.inet.InetAddresses] Is this a loopback interface? false
12:17:07.087 [DEBUG] [org.gradle.internal.remote.internal.inet.InetAddresses] Is this a multicast interface? true
12:17:07.087 [DEBUG] [org.gradle.internal.remote.internal.inet.InetAddresses] Adding loopback multicast interface Amazon Elastic Network Adapter #2-WFP Native MAC Layer LightWeight Filter-0000
12:17:07.087 [DEBUG] [org.gradle.internal.remote.internal.inet.InetAddresses] Adding IP addresses for network interface Amazon Elastic Network Adapter #2-QoS Packet Scheduler-0000
12:17:07.088 [DEBUG] [org.gradle.internal.remote.internal.inet.InetAddresses] Is this a loopback interface? false
12:17:07.089 [DEBUG] [org.gradle.internal.remote.internal.inet.InetAddresses] Is this a multicast interface? true
12:17:07.090 [DEBUG] [org.gradle.internal.remote.internal.inet.InetAddresses] Adding loopback multicast interface Amazon Elastic Network Adapter #2-QoS Packet Scheduler-0000
12:17:07.090 [DEBUG] [org.gradle.internal.remote.internal.inet.InetAddresses] Adding IP addresses for network interface Amazon Elastic Network Adapter #2-WFP 802.3 MAC Layer LightWeight Filter-0000
12:17:07.091 [DEBUG] [org.gradle.internal.remote.internal.inet.InetAddresses] Is this a loopback interface? false
12:17:07.091 [DEBUG] [org.gradle.internal.remote.internal.inet.InetAddresses] Is this a multicast interface? true
12:17:07.092 [DEBUG] [org.gradle.internal.remote.internal.inet.InetAddresses] Adding loopback multicast interface Amazon Elastic Network Adapter #2-WFP 802.3 MAC Layer LightWeight Filter-0000
12:17:07.092 [DEBUG] [org.gradle.internal.remote.internal.inet.InetAddresses] Adding IP addresses for network interface Amazon Elastic Network Adapter-WFP Native MAC Layer LightWeight Filter-0000
12:17:07.093 [DEBUG] [org.gradle.internal.remote.internal.inet.InetAddresses] Is this a loopback interface? false
12:17:07.093 [DEBUG] [org.gradle.internal.remote.internal.inet.InetAddresses] Is this a multicast interface? true
12:17:07.094 [DEBUG] [org.gradle.internal.remote.internal.inet.InetAddresses] Adding loopback multicast interface Amazon Elastic Network Adapter-WFP Native MAC Layer LightWeight Filter-0000
12:17:07.094 [DEBUG] [org.gradle.internal.remote.internal.inet.InetAddresses] Adding IP addresses for network interface Amazon Elastic Network Adapter-QoS Packet Scheduler-0000
12:17:07.095 [DEBUG] [org.gradle.internal.remote.internal.inet.InetAddresses] Is this a loopback interface? false
12:17:07.095 [DEBUG] [org.gradle.internal.remote.internal.inet.InetAddresses] Is this a multicast interface? true
12:17:07.096 [DEBUG] [org.gradle.internal.remote.internal.inet.InetAddresses] Adding loopback multicast interface Amazon Elastic Network Adapter-QoS Packet Scheduler-0000
12:17:07.096 [DEBUG] [org.gradle.internal.remote.internal.inet.InetAddresses] Adding IP addresses for network interface Amazon Elastic Network Adapter-WFP 802.3 MAC Layer LightWeight Filter-0000
12:17:07.097 [DEBUG] [org.gradle.internal.remote.internal.inet.InetAddresses] Is this a loopback interface? false
12:17:07.098 [DEBUG] [org.gradle.internal.remote.internal.inet.InetAddresses] Is this a multicast interface? true
12:17:07.098 [DEBUG] [org.gradle.internal.remote.internal.inet.InetAddresses] Adding loopback multicast interface Amazon Elastic Network Adapter-WFP 802.3 MAC Layer LightWeight Filter-0000
12:17:07.100 [DEBUG] [org.gradle.internal.remote.internal.inet.TcpIncomingConnector] Listening on [3d205471-50d6-4a9d-9859-5effd005de8d port:52543, addresses:[/127.0.0.1, /0:0:0:0:0:0:0:1]].
12:17:07.104 [DEBUG] [org.gradle.launcher.daemon.server.Daemon] Daemon starting at: Thu Oct 01 12:17:07 EDT 2020, with address: [3d205471-50d6-4a9d-9859-5effd005de8d port:52543, addresses:[/127.0.0.1, /0:0:0:0:0:0:0:1]]
12:17:07.104 [INFO] [org.gradle.launcher.daemon.server.DaemonRegistryUpdater] Advertising the daemon address to the clients: [3d205471-50d6-4a9d-9859-5effd005de8d port:52543, addresses:[/127.0.0.1, /0:0:0:0:0:0:0:1]]
12:17:07.104 [DEBUG] [org.gradle.launcher.daemon.server.DaemonRegistryUpdater] Advertised daemon context: DefaultDaemonContext[uid=0cf14291-75ec-4ead-a9e7-db57ffebdcdb,javaHome=C:\Program Files\Java\jdk1.8.0_201,daemonRegistryDir=D:\Guidewire\gw10base\PolicyCenter1001\gradle\cache\daemon,pid=5584,idleTimeout=120000,daemonOpts=-Xms1g,-Xmx4g,-Dfile.encoding=windows-1252,-Duser.country=US,-Duser.language=en,-Duser.variant]
12:17:07.105 [DEBUG] [org.gradle.launcher.daemon.registry.PersistentDaemonRegistry] Storing daemon address: [3d205471-50d6-4a9d-9859-5effd005de8d port:52543, addresses:[/127.0.0.1, /0:0:0:0:0:0:0:1]], context: DefaultDaemonContext[uid=0cf14291-75ec-4ead-a9e7-db57ffebdcdb,javaHome=C:\Program Files\Java\jdk1.8.0_201,daemonRegistryDir=D:\Guidewire\gw10base\PolicyCenter1001\gradle\cache\daemon,pid=5584,idleTimeout=120000,daemonOpts=-Xms1g,-Xmx4g,-Dfile.encoding=windows-1252,-Duser.country=US,-Duser.language=en,-Duser.variant]
12:17:07.119 [DEBUG] [org.gradle.cache.internal.DefaultFileLockManager] Waiting to acquire exclusive lock on daemon addresses registry.
12:17:07.124 [DEBUG] [org.gradle.cache.internal.DefaultFileLockManager] Lock acquired on daemon addresses registry.
12:17:07.131 [DEBUG] [org.gradle.cache.internal.DefaultFileLockManager] Releasing lock on daemon addresses registry.
12:17:07.134 [LIFECYCLE] [org.gradle.launcher.daemon.server.Daemon] Daemon server started.
12:17:07.135 [DEBUG] [org.gradle.launcher.daemon.bootstrap.DaemonStartupCommunication] Completed writing the daemon greeting. Closing streams...
12:17:07.139 [DEBUG] [org.gradle.launcher.daemon.server.Daemon] stopOnExpiration() called on daemon
12:17:07.140 [DEBUG] [org.gradle.launcher.daemon.server.Daemon] awaitExpiration() called on daemon
12:17:07.141 [DEBUG] [org.gradle.launcher.daemon.server.DaemonStateCoordinator] daemon is running. Sleeping until state changes.
12:17:07.203 [DEBUG] [org.gradle.internal.remote.internal.inet.TcpIncomingConnector] Accepted connection from /127.0.0.1:52544 to /127.0.0.1:52543.
12:17:07.237 [DEBUG] [org.gradle.launcher.daemon.server.SynchronizedDispatchConnection] thread 17: received class org.gradle.launcher.daemon.protocol.Build
12:17:07.237 [DEBUG] [org.gradle.launcher.daemon.server.DefaultDaemonConnection] thread 17: Received non-IO message from client: Build{id=a4133615-d5b1-4c77-8400-a92023c91345, currentDir=D:\Guidewire\gw10base\PolicyCenter1001}
12:17:07.237 [INFO] [org.gradle.launcher.daemon.server.DefaultIncomingConnectionHandler] Received command: Build{id=a4133615-d5b1-4c77-8400-a92023c91345, currentDir=D:\Guidewire\gw10base\PolicyCenter1001}.
12:17:07.237 [DEBUG] [org.gradle.launcher.daemon.server.DefaultIncomingConnectionHandler] Starting executing command: Build{id=a4133615-d5b1-4c77-8400-a92023c91345, currentDir=D:\Guidewire\gw10base\PolicyCenter1001} with connection: socket connection from /127.0.0.1:52543 to /127.0.0.1:52544.
12:17:07.239 [ERROR] [org.gradle.launcher.daemon.server.DaemonStateCoordinator] Command execution: started DaemonCommandExecution[command = Build{id=a4133615-d5b1-4c77-8400-a92023c91345, currentDir=D:\Guidewire\gw10base\PolicyCenter1001}, connection = DefaultDaemonConnection: socket connection from /127.0.0.1:52543 to /127.0.0.1:52544] after 0.0 minutes of idle
12:17:07.239 [INFO] [org.gradle.launcher.daemon.server.DaemonRegistryUpdater] Marking the daemon as busy, address: [3d205471-50d6-4a9d-9859-5effd005de8d port:52543, addresses:[/127.0.0.1, /0:0:0:0:0:0:0:1]]
12:17:07.240 [DEBUG] [org.gradle.launcher.daemon.registry.PersistentDaemonRegistry] Marking busy by address: [3d205471-50d6-4a9d-9859-5effd005de8d port:52543, addresses:[/127.0.0.1, /0:0:0:0:0:0:0:1]]
12:17:07.240 [DEBUG] [org.gradle.cache.internal.DefaultFileLockManager] Waiting to acquire exclusive lock on daemon addresses registry.
12:17:07.243 [DEBUG] [org.gradle.cache.internal.DefaultFileLockManager] Lock acquired on daemon addresses registry.
12:17:07.247 [DEBUG] [org.gradle.cache.internal.DefaultFileLockManager] Releasing lock on daemon addresses registry.
12:17:07.249 [DEBUG] [org.gradle.launcher.daemon.server.DaemonStateCoordinator] resetting idle timer
12:17:07.249 [DEBUG] [org.gradle.launcher.daemon.server.DaemonStateCoordinator] daemon is running. Sleeping until state changes.
12:17:07.250 [INFO] [org.gradle.launcher.daemon.server.exec.StartBuildOrRespondWithBusy] Daemon is about to start building Build{id=a4133615-d5b1-4c77-8400-a92023c91345, currentDir=D:\Guidewire\gw10base\PolicyCenter1001}. Dispatching build started information...
12:17:07.250 [DEBUG] [org.gradle.launcher.daemon.server.SynchronizedDispatchConnection] thread 19: dispatching class org.gradle.launcher.daemon.protocol.BuildStarted
12:17:07.252 [DEBUG] [org.gradle.launcher.daemon.server.exec.EstablishBuildEnvironment] Configuring env variables: {USERDOMAIN_ROAMINGPROFILE=DOMAIN, PROCESSOR_LEVEL=6, SESSIONNAME=Console, ALLUSERSPROFILE=C:\ProgramData, PROCESSOR_ARCHITECTURE=AMD64, STXHD_ACCOUNT_ID=180699916525, PSModulePath=C:\Program Files\WindowsPowerShell\Modules;C:\Windows\system32\WindowsPowerShell\v1.0\Modules;C:\Program Files (x86)\AWS Tools\PowerShell\;C:\Program Files (x86)\Microsoft SQL Server\140\Tools\PowerShell\Modules\, SystemDrive=C:, JRE_HOME=C:\Program Files\Java\jre1.8.0_191, STXHD_INSTANCE_ID=i-0abe67ed7259931ac, DIRNAME=D:\Guidewire\gw10base\PolicyCenter1001\, USERNAME=SouravB, USERDNSDOMAIN=CDA.CORP, CMD_LINE_ARGS=studio, ProgramFiles(x86)=C:\Program Files (x86), APP_HOME=D:\Guidewire\gw10base\PolicyCenter1001\, DEFAULT_JVM_OPTS="-Xmx1g", PATHEXT=.COM;.EXE;.BAT;.CMD;.VBS;.VBE;.JS;.JSE;.WSF;.WSH;.MSC, STXHD_PERFORMANCE=SPEED, ProgramData=C:\ProgramData, ProgramW6432=C:\Program Files, HOMEPATH=\Users\SouravB, PROCESSOR_IDENTIFIER=Intel64 Family 6 Model 85 Stepping 7, GenuineIntel, ProgramFiles=C:\Program Files, PUBLIC=C:\Users\Public, windir=C:\Windows, =::=::\, _SKIP=2, LOCALAPPDATA=D:\Users\SouravB\AppData\Local, USERDOMAIN=DOMAIN, LOGONSERVER=\\A049NP-DC, JAVA_HOME=C:\Program Files\Java\jdk1.8.0_201, PROMPT=$P$G, ANT_HOME=D:\Guidewire\apache-ant-1.8.2, OneDrive=D:\Users\SouravB\OneDrive, APPDATA=D:\Users\SouravB\AppData\Roaming, JAVA_EXE=C:\Program Files\Java\jdk1.8.0_201/bin/java.exe, STXHD_REGION=us-west-2, CommonProgramFiles=C:\Program Files\Common Files, Path=C:\Program Files (x86)\Common Files\Oracle\Java\javapath;C:\Windows\system32;C:\Windows;C:\Windows\System32\Wbem;C:\Windows\System32\WindowsPowerShell\v1.0\;C:\Program Files\Amazon\cfn-bootstrap\;C:\Program Files\Microsoft SQL Server\Client SDK\ODBC\130\Tools\Binn\;C:\Program Files (x86)\Microsoft SQL Server\140\Tools\Binn\;C:\Program Files\Microsoft SQL Server\140\Tools\Binn\;C:\Program Files\Microsoft SQL Server\140\DTS\Binn\;C:\Program Files (x86)\Microsoft SQL Server\Client SDK\ODBC\130\Tools\Binn\;C:\Program Files (x86)\Microsoft SQL Server\140\DTS\Binn\;C:\Program Files (x86)\Microsoft SQL Server\140\Tools\Binn\ManagementStudio\;C:\Program Files\Git\cmd;D:\Guidewire\apache-ant-1.8.2\bin;C:\Program Files\TortoiseGit\bin;D:\Users\SouravB\AppData\Local\Microsoft\WindowsApps;, OS=Windows_NT, COMPUTERNAME=EC2AMAZ-59OFDH5, PROCESSOR_REVISION=5507, CLASSPATH=D:\Guidewire\gw10base\PolicyCenter1001\\gradle\wrapper\gradle-wrapper.jar, CommonProgramW6432=C:\Program Files\Common Files, ComSpec=C:\Windows\system32\cmd.exe, APP_BASE_NAME=gwb, =D:=D:\Guidewire\gw10base\PolicyCenter1001, SystemRoot=C:\Windows, TEMP=D:\Users\SouravB\AppData\Local\Temp\1, HOMEDRIVE=D:, USERPROFILE=D:\Users\SouravB, TMP=D:\Users\SouravB\AppData\Local\Temp\1, CommonProgramFiles(x86)=C:\Program Files (x86)\Common Files, NUMBER_OF_PROCESSORS=8}
12:17:07.257 [DEBUG] [org.gradle.launcher.daemon.server.exec.LogToClient] About to start relaying all logs to the client via the connection.
12:17:07.257 [INFO] [org.gradle.launcher.daemon.server.exec.LogToClient] The client will now receive all logging from the daemon (pid: 5584). The daemon log file: D:\Guidewire\gw10base\PolicyCenter1001\gradle\cache\daemon\4.10\daemon-5584.out.log
12:17:07.259 [DEBUG] [org.gradle.launcher.daemon.server.exec.RequestStopIfSingleUsedDaemon] Requesting daemon stop after processing Build{id=a4133615-d5b1-4c77-8400-a92023c91345, currentDir=D:\Guidewire\gw10base\PolicyCenter1001}
12:17:07.259 [LIFECYCLE] [org.gradle.launcher.daemon.server.DaemonStateCoordinator] Daemon will be stopped at the end of the build stopping after processing
12:17:07.259 [DEBUG] [org.gradle.launcher.daemon.server.DaemonStateCoordinator] Stop as soon as idle requested. The daemon is busy: true
12:17:07.259 [DEBUG] [org.gradle.launcher.daemon.server.DaemonStateCoordinator] daemon stop has been requested. Sleeping until state changes.
12:17:07.263 [DEBUG] [org.gradle.launcher.daemon.server.exec.ExecuteBuild] The daemon has started executing the build.
12:17:07.263 [DEBUG] [org.gradle.launcher.daemon.server.exec.ExecuteBuild] Executing build with daemon context: DefaultDaemonContext[uid=0cf14291-75ec-4ead-a9e7-db57ffebdcdb,javaHome=C:\Program Files\Java\jdk1.8.0_201,daemonRegistryDir=D:\Guidewire\gw10base\PolicyCenter1001\gradle\cache\daemon,pid=5584,idleTimeout=120000,daemonOpts=-Xms1g,-Xmx4g,-Dfile.encoding=windows-1252,-Duser.country=US,-Duser.language=en,-Duser.variant]
Parallel execution is an incubating feature.
Importing POM com.guidewire.pc:pc-parent:10.0.1
Importing parent POM com.guidewire.pc:pc-all:10.0.1
Importing POM com.guidewire.pc:pc-all:10.0.1
Current User : SouravB
Root Directory : D:/Guidewire/gw10basePLCP//GosuCodeNarcValidationTool
Generating D:\Guidewire\gw10base\PolicyCenter1001\.idea\settings\idea.properties file
Generating D:\Guidewire\gw10base\PolicyCenter1001\.idea\settings\config\options\other.xml file
Generating D:\Guidewire\gw10base\PolicyCenter1001\.idea\settings\config\options\recentProjects.xml file

Starting Guidewire Studio...

Deprecated Gradle features were used in this build, making it incompatible with Gradle 5.0.
Use '--warning-mode all' to show the individual deprecation warnings.
See https://docs.gradle.org/4.10/userguide/command_line_interface.html#sec:command_line_warnings

BUILD SUCCESSFUL in 19s
7 actionable tasks: 7 executed
12:17:19.047 [DEBUG] [org.gradle.launcher.daemon.server.exec.ExecuteBuild] The daemon has finished executing the build.
12:17:19.056 [DEBUG] [org.gradle.launcher.daemon.server.DaemonStateCoordinator] daemon stop has been requested. Sleeping until state changes.
12:17:19.057 [DEBUG] [org.gradle.launcher.daemon.server.DaemonStateCoordinator] Command execution: finished waiting for DaemonCommandExecution[command = Build{id=a4133615-d5b1-4c77-8400-a92023c91345, currentDir=D:\Guidewire\gw10base\PolicyCenter1001}, connection = DefaultDaemonConnection: socket connection from /127.0.0.1:52543 to /127.0.0.1:52544]. Result org.gradle.launcher.daemon.server.DaemonStateCoordinator@7af203c with state StopRequested
12:17:19.057 [DEBUG] [org.gradle.launcher.daemon.server.DaemonStateCoordinator] Command execution: completed DaemonCommandExecution[command = Build{id=a4133615-d5b1-4c77-8400-a92023c91345, currentDir=D:\Guidewire\gw10base\PolicyCenter1001}, connection = DefaultDaemonConnection: socket connection from /127.0.0.1:52543 to /127.0.0.1:52544]
12:17:19.057 [DEBUG] [org.gradle.launcher.daemon.server.DaemonStateCoordinator] resetting idle timer
12:17:19.057 [DEBUG] [org.gradle.launcher.daemon.server.DaemonStateCoordinator] Marking daemon stopped due to command completed and stop requested. The daemon is running a build: false
12:17:19.057 [DEBUG] [org.gradle.launcher.daemon.server.DaemonStateCoordinator] daemon has stopped.
12:17:19.057 [DEBUG] [org.gradle.launcher.daemon.server.exec.ReturnResult] Daemon is dispatching the build result: Success[value=null]
12:17:19.057 [DEBUG] [org.gradle.launcher.daemon.server.Daemon] stop() called on daemon
12:17:19.057 [DEBUG] [org.gradle.launcher.daemon.server.SynchronizedDispatchConnection] thread 16: dispatching class org.gradle.launcher.daemon.protocol.Success
12:17:19.057 [INFO] [org.gradle.launcher.daemon.server.Daemon] Stop requested. Daemon is removing its presence from the registry...
12:17:19.058 [DEBUG] [org.gradle.launcher.daemon.server.DefaultIncomingConnectionHandler] Finishing executing command: Build{id=a4133615-d5b1-4c77-8400-a92023c91345, currentDir=D:\Guidewire\gw10base\PolicyCenter1001}
12:17:19.058 [DEBUG] [org.gradle.launcher.daemon.server.DaemonRegistryUpdater] Removing our presence to clients, eg. removing this address from the registry: [3d205471-50d6-4a9d-9859-5effd005de8d port:52543, addresses:[/127.0.0.1, /0:0:0:0:0:0:0:1]]
12:17:19.058 [DEBUG] [org.gradle.launcher.daemon.registry.PersistentDaemonRegistry] Removing daemon address: [3d205471-50d6-4a9d-9859-5effd005de8d port:52543, addresses:[/127.0.0.1, /0:0:0:0:0:0:0:1]]
12:17:19.058 [DEBUG] [org.gradle.launcher.daemon.server.SynchronizedDispatchConnection] thread 17: received class org.gradle.launcher.daemon.protocol.CloseInput
12:17:19.059 [DEBUG] [org.gradle.launcher.daemon.server.DefaultDaemonConnection] thread 17: Received IO message from client: org.gradle.launcher.daemon.protocol.CloseInput@3aaab7c9
12:17:19.059 [DEBUG] [org.gradle.launcher.daemon.server.SynchronizedDispatchConnection] thread 17: received class org.gradle.launcher.daemon.protocol.Finished
12:17:19.059 [DEBUG] [org.gradle.launcher.daemon.server.DefaultDaemonConnection] thread 17: Received non-IO message from client: org.gradle.launcher.daemon.protocol.Finished@154e0a13
12:17:19.059 [DEBUG] [org.gradle.launcher.daemon.server.DefaultIncomingConnectionHandler] Received finished message: org.gradle.launcher.daemon.protocol.Finished@154e0a13
12:17:19.059 [DEBUG] [org.gradle.launcher.daemon.server.SynchronizedDispatchConnection] thread 16: stopping connection
12:17:19.059 [DEBUG] [org.gradle.cache.internal.DefaultFileLockManager] Waiting to acquire exclusive lock on daemon addresses registry.
12:17:19.060 [DEBUG] [org.gradle.internal.remote.internal.inet.SocketConnection] Discarding EOFException: java.io.EOFException
12:17:19.061 [DEBUG] [org.gradle.launcher.daemon.server.SynchronizedDispatchConnection] thread 17: received null
12:17:19.061 [DEBUG] [org.gradle.launcher.daemon.server.DefaultDaemonConnection] thread 17: Received end-of-input from client.
12:17:19.061 [DEBUG] [org.gradle.launcher.daemon.server.SynchronizedDispatchConnection] thread 16: stopping connection
12:17:19.063 [DEBUG] [org.gradle.cache.internal.DefaultFileLockManager] Lock acquired on daemon addresses registry.
12:17:19.066 [DEBUG] [org.gradle.cache.internal.DefaultFileLockManager] Releasing lock on daemon addresses registry.
12:17:19.069 [DEBUG] [org.gradle.launcher.daemon.server.DaemonRegistryUpdater] Address removed from registry.
12:17:19.074 [DEBUG] [org.gradle.cache.internal.LockOnDemandCrossProcessCacheAccess] Releasing file lock for Artifact transforms cache (D:\Guidewire\gw10base\PolicyCenter1001\gradle\cache\caches\transforms-1)
12:17:19.074 [DEBUG] [org.gradle.cache.internal.DefaultFileLockManager] Releasing lock on Artifact transforms cache (D:\Guidewire\gw10base\PolicyCenter1001\gradle\cache\caches\transforms-1).
12:17:19.078 [DEBUG] [org.gradle.cache.internal.DefaultPersistentDirectoryStore] Artifact transforms cache (D:\Guidewire\gw10base\PolicyCenter1001\gradle\cache\caches\transforms-1) has last been fully cleaned up 25 hours ago
12:17:19.078 [INFO] [org.gradle.cache.internal.LeastRecentlyUsedCacheCleanup] Artifact transforms cache (D:\Guidewire\gw10base\PolicyCenter1001\gradle\cache\caches\transforms-1) [subdir: D:\Guidewire\gw10base\PolicyCenter1001\gradle\cache\caches\transforms-1\files-1.1] removing files not accessed on or after Thu Sep 24 12:17:09 EDT 2020.
12:17:19.079 [DEBUG] [org.gradle.cache.internal.AbstractCacheCleanup] Artifact transforms cache (D:\Guidewire\gw10base\PolicyCenter1001\gradle\cache\caches\transforms-1) [subdir: D:\Guidewire\gw10base\PolicyCenter1001\gradle\cache\caches\transforms-1\files-1.1] cleanup deleted 0 files/directories.
12:17:19.080 [INFO] [org.gradle.cache.internal.DefaultPersistentDirectoryStore] Artifact transforms cache (D:\Guidewire\gw10base\PolicyCenter1001\gradle\cache\caches\transforms-1) cleaned up in 0.002 secs.
12:17:19.081 [DEBUG] [org.gradle.cache.internal.LockOnDemandCrossProcessCacheAccess] Releasing file lock for file content cache (D:\Guidewire\gw10base\PolicyCenter1001\gradle\cache\caches\4.10\fileContent)
12:17:19.081 [DEBUG] [org.gradle.cache.internal.DefaultFileLockManager] Releasing lock on file content cache (D:\Guidewire\gw10base\PolicyCenter1001\gradle\cache\caches\4.10\fileContent).
12:17:19.084 [DEBUG] [org.gradle.cache.internal.LockOnDemandCrossProcessCacheAccess] Releasing file lock for jars (D:\Guidewire\gw10base\PolicyCenter1001\gradle\cache\caches\jars-3)
12:17:19.084 [DEBUG] [org.gradle.cache.internal.DefaultFileLockManager] Releasing lock on jars (D:\Guidewire\gw10base\PolicyCenter1001\gradle\cache\caches\jars-3).
12:17:19.087 [DEBUG] [org.gradle.cache.internal.DefaultPersistentDirectoryStore] jars (D:\Guidewire\gw10base\PolicyCenter1001\gradle\cache\caches\jars-3) has last been fully cleaned up 25 hours ago
12:17:19.094 [DEBUG] [org.gradle.cache.internal.AbstractCacheCleanup] jars (D:\Guidewire\gw10base\PolicyCenter1001\gradle\cache\caches\jars-3) cleanup deleted 0 files/directories.
12:17:19.094 [INFO] [org.gradle.cache.internal.LeastRecentlyUsedCacheCleanup] jars (D:\Guidewire\gw10base\PolicyCenter1001\gradle\cache\caches\jars-3) removing files not accessed on or after Thu Sep 24 12:17:07 EDT 2020.
12:17:19.095 [DEBUG] [org.gradle.cache.internal.AbstractCacheCleanup] jars (D:\Guidewire\gw10base\PolicyCenter1001\gradle\cache\caches\jars-3) cleanup deleted 0 files/directories.
12:17:19.096 [INFO] [org.gradle.cache.internal.DefaultPersistentDirectoryStore] jars (D:\Guidewire\gw10base\PolicyCenter1001\gradle\cache\caches\jars-3) cleaned up in 0.008 secs.
12:17:19.097 [DEBUG] [org.gradle.cache.internal.LockOnDemandCrossProcessCacheAccess] Releasing file lock for file hash cache (D:\Guidewire\gw10base\PolicyCenter1001\gradle\cache\caches\4.10\fileHashes)
12:17:19.097 [DEBUG] [org.gradle.cache.internal.btree.BTreePersistentIndexedCache] Closing cache fileHashes.bin (D:\Guidewire\gw10base\PolicyCenter1001\gradle\cache\caches\4.10\fileHashes\fileHashes.bin)
12:17:19.097 [DEBUG] [org.gradle.cache.internal.btree.BTreePersistentIndexedCache] Closing cache resourceHashesCache.bin (D:\Guidewire\gw10base\PolicyCenter1001\gradle\cache\caches\4.10\fileHashes\resourceHashesCache.bin)
12:17:19.098 [DEBUG] [org.gradle.cache.internal.DefaultFileLockManager] Releasing lock on file hash cache (D:\Guidewire\gw10base\PolicyCenter1001\gradle\cache\caches\4.10\fileHashes).
12:17:19.101 [DEBUG] [org.gradle.cache.internal.DefaultCacheAccess] Cache Generated Gradle JARs cache (D:\Guidewire\gw10base\PolicyCenter1001\gradle\cache\caches\4.10\generated-gradle-jars) was closed 0 times.
12:17:19.101 [DEBUG] [org.gradle.cache.internal.DefaultPersistentDirectoryStore] artifact cache (D:\Guidewire\gw10base\PolicyCenter1001\gradle\cache\caches\modules-2) has last been fully cleaned up 25 hours ago
12:17:19.102 [DEBUG] [org.gradle.cache.internal.AbstractCacheCleanup] artifact cache (D:\Guidewire\gw10base\PolicyCenter1001\gradle\cache\caches\modules-2) cleanup deleted 0 files/directories.
12:17:19.102 [DEBUG] [org.gradle.cache.internal.AbstractCacheCleanup] artifact cache (D:\Guidewire\gw10base\PolicyCenter1001\gradle\cache\caches\modules-2) [subdir: D:\Guidewire\gw10base\PolicyCenter1001\gradle\cache\caches\modules-2\resources-2.1] cleanup deleted 0 files/directories.
12:17:19.102 [INFO] [org.gradle.cache.internal.LeastRecentlyUsedCacheCleanup] artifact cache (D:\Guidewire\gw10base\PolicyCenter1001\gradle\cache\caches\modules-2) [subdir: D:\Guidewire\gw10base\PolicyCenter1001\gradle\cache\caches\modules-2\resources-2.1] removing files not accessed on or after Tue Sep 01 12:17:07 EDT 2020.
12:17:19.102 [DEBUG] [org.gradle.cache.internal.AbstractCacheCleanup] artifact cache (D:\Guidewire\gw10base\PolicyCenter1001\gradle\cache\caches\modules-2) [subdir: D:\Guidewire\gw10base\PolicyCenter1001\gradle\cache\caches\modules-2\resources-2.1] cleanup deleted 0 files/directories.
12:17:19.103 [DEBUG] [org.gradle.cache.internal.AbstractCacheCleanup] artifact cache (D:\Guidewire\gw10base\PolicyCenter1001\gradle\cache\caches\modules-2) [subdir: D:\Guidewire\gw10base\PolicyCenter1001\gradle\cache\caches\modules-2\files-2.1] cleanup deleted 0 files/directories.
12:17:19.103 [INFO] [org.gradle.cache.internal.LeastRecentlyUsedCacheCleanup] artifact cache (D:\Guidewire\gw10base\PolicyCenter1001\gradle\cache\caches\modules-2) [subdir: D:\Guidewire\gw10base\PolicyCenter1001\gradle\cache\caches\modules-2\files-2.1] removing files not accessed on or after Tue Sep 01 12:17:07 EDT 2020.
12:17:19.103 [DEBUG] [org.gradle.cache.internal.AbstractCacheCleanup] artifact cache (D:\Guidewire\gw10base\PolicyCenter1001\gradle\cache\caches\modules-2) [subdir: D:\Guidewire\gw10base\PolicyCenter1001\gradle\cache\caches\modules-2\files-2.1] cleanup deleted 0 files/directories.
12:17:19.103 [DEBUG] [org.gradle.cache.internal.AbstractCacheCleanup] artifact cache (D:\Guidewire\gw10base\PolicyCenter1001\gradle\cache\caches\modules-2) [subdir: D:\Guidewire\gw10base\PolicyCenter1001\gradle\cache\caches\modules-2\metadata-2.63] cleanup deleted 0 files/directories.
12:17:19.105 [INFO] [org.gradle.cache.internal.DefaultPersistentDirectoryStore] artifact cache (D:\Guidewire\gw10base\PolicyCenter1001\gradle\cache\caches\modules-2) cleaned up in 0.003 secs.
12:17:19.105 [DEBUG] [org.gradle.cache.internal.DefaultCacheAccess] Cache artifact cache (D:\Guidewire\gw10base\PolicyCenter1001\gradle\cache\caches\modules-2) was closed 0 times.
12:17:19.106 [DEBUG] [org.gradle.cache.internal.LockOnDemandCrossProcessCacheAccess] Releasing file lock for journal cache (D:\Guidewire\gw10base\PolicyCenter1001\gradle\cache\caches\journal-1)
12:17:19.106 [DEBUG] [org.gradle.cache.internal.btree.BTreePersistentIndexedCache] Closing cache file-access.bin (D:\Guidewire\gw10base\PolicyCenter1001\gradle\cache\caches\journal-1\file-access.bin)
12:17:19.109 [DEBUG] [org.gradle.cache.internal.DefaultFileLockManager] Releasing lock on journal cache (D:\Guidewire\gw10base\PolicyCenter1001\gradle\cache\caches\journal-1).
12:17:19.118 [DEBUG] [org.gradle.cache.internal.VersionSpecificCacheCleanupAction] Processed version-specific caches at D:\Guidewire\gw10base\PolicyCenter1001\gradle\cache\caches for cleanup in 0.005 secs
Daemon vm is shutting down... The daemon has exited normally or was terminated in response to a user interrupt.
12:17:19.122 [DEBUG] [org.gradle.launcher.daemon.registry.PersistentDaemonRegistry] Removing daemon address: [3d205471-50d6-4a9d-9859-5effd005de8d port:52543, addresses:[/127.0.0.1, /0:0:0:0:0:0:0:1]]
12:17:19.128 [DEBUG] [org.gradle.cache.internal.DefaultFileLockManager] Waiting to acquire exclusive lock on daemon addresses registry.
12:17:19.131 [DEBUG] [org.gradle.cache.internal.DefaultFileLockManager] Lock acquired on daemon addresses registry.
12:17:19.135 [DEBUG] [org.gradle.cache.internal.DefaultFileLockManager] Releasing lock on daemon addresses registry.
