package rules.Preupdate.BillingInstructionPreupdate_dir

@gw.rules.RuleName("TDIC_WC100000")
internal class TDIC_WC100000 {
  static function doCondition(billingInstruction : entity.BillingInstruction) : boolean {
/*start00rule*/
return true
/*end00rule*/
}

  static function doAction(billingInstruction : entity.BillingInstruction, actions : gw.rules.Action) {
/*start00rule*/
 
/*end00rule*/
  }
}
