package rules.EventMessage.EventFired_dir.TDIC_ALL100000_dir.EFR2100GeneralLedger_dir.EFR2200Transaction_dir
uses gw.api.system.BCLoggerCategory
uses tdic.bc.integ.plugins.generalledger.helper.TDIC_GLIntegrationHelper
uses tdic.bc.integ.plugins.generalledger.helper.TDIC_GLIntegrationFilter
uses org.slf4j.LoggerFactory

@gw.rules.RuleName("EFR2300 - Transaction Added")
internal class EFR2300TransactionAdded {
  static function doCondition(messageContext       :       entity.MessageContext) : boolean {
/*start00rule*/
return messageContext.EventName == TDIC_GLIntegrationHelper.TRANSACTION_ADDED
/*end00rule*/
}

  static function doAction(messageContext       :       entity.MessageContext, actions : gw.rules.Action) {
/*start00rule*/
var logger = LoggerFactory.getLogger("GENERAL_LEDGER")

logger.debug("Processing '" + messageContext.EventName + "' into GL transaction")

var aTransaction = messageContext.Root as entity.Transaction

//Must create a new filter each time, in case the filters were changed since the last message send.
var filter = new TDIC_GLIntegrationFilter()
//Check the GL Filters in the database before creating the message.
if(filter.allow(aTransaction.Subtype.Code)) {
  logger.debug("Transaction '" + aTransaction.Subtype + "' is not on the filters list. Allowing transaction to go through.")
  messageContext.createMessage(TDIC_GLIntegrationHelper.mapToGLTransactionModel(aTransaction).asUTFString())
}
else {
  logger.debug("Transaction '" + aTransaction.Subtype + "' is on the filters list. Not allowing transaction to go through.")
}

logger.debug("Finished processing event for '" + messageContext.EventName + "'"); 
/*end00rule*/
  }
}
