package rules.EventMessage.EventFired_dir.TDIC_ALL100000_dir.TDIC_EFR120000HPExstream_dir

uses tdic.bc.config.invoice.TDIC_InvoicePURHelper
uses tdic.bc.integ.plugins.hpexstream.util.TDIC_BCExstreamHelper
uses org.slf4j.LoggerFactory

@gw.rules.RuleDisabled
@gw.rules.RuleName("Invoice Resent")
internal class InvoiceResent {
  static function doCondition(messageContext : entity.MessageContext) : boolean {
/*start00rule*/
return (messageContext.EventName == "InvoiceResent"
        and (messageContext.Root as Invoice).ShouldRequestInvoiceResendDocument)

/*end00rule*/
}

  static function doAction(messageContext : entity.MessageContext, actions : gw.rules.Action) {
/*start00rule*/
var invoice = messageContext.Root as Invoice;
var logger = LoggerFactory.getLogger("Application.Invoice");

// Update bar code
logger.trace ("Existing OCRBarCode for invoice: " + invoice + " is " + invoice.BarCode_TDIC);
invoice.BarCode_TDIC = TDIC_InvoicePURHelper.generateOCRBarCode(invoice);
logger.trace ("Updated OCRBarCode for invoice: " + invoice + " is " + invoice.BarCode_TDIC);

// Create document
var documentType: TDIC_DocCreationEventType = null
if(invoice.Status == InvoiceStatus.TC_DUE){
  documentType = invoice.IsFinalAuditInvoice_TDIC ? TDIC_DocCreationEventType.TC_FINALAUDITREMINDERNOTICE
                                                  : TDIC_DocCreationEventType.TC_DELINQUENCYREMINDER;
}else{
  documentType = tdic.bc.config.invoice.InvoiceUtil.getDocumentCreationEventType(invoice);
}

var policyPeriod = invoice.InvoiceStream.PolicyPeriod_TDIC;

// Creating document stub
var bcHelper =  new TDIC_BCExstreamHelper()
bcHelper.createDocumentStubs(documentType.Code, policyPeriod.Policy.Account, policyPeriod)

// Creating payload
var documents = invoice.Bundle.InsertedBeans.whereTypeIs(Document);
bcHelper.createBatchMessageForDocuments(messageContext, documentType.Code, documents);

/*end00rule*/
  }
}
