package rules.EventMessage.EventFired_dir.TDIC_ALL100000_dir.TDIC_EFR120000HPExstream_dir

@gw.rules.RuleDisabled
@gw.rules.RuleName("TDIC_EFR122000 - Billing Installment")
internal class TDIC_EFR122000BillingInstallment {
  static function doCondition(messageContext : entity.MessageContext) : boolean {
/*start00rule*/
return messageContext.EventName == TDIC_DocCreationEventType.TC_BILLINGINSTALLMENT as String
/*end00rule*/
}

  static function doAction(messageContext : entity.MessageContext, actions : gw.rules.Action) {
/*start00rule*/

/*end00rule*/
  }
}
