<?xml version="1.0" encoding="UTF-8"?>
<svg width="157px" height="25px" viewBox="0 0 157 25" version="1.1" xmlns="http://www.w3.org/2000/svg" xmlns:xlink="http://www.w3.org/1999/xlink">
    <title>BillingCenterInAppLogo</title>
    <defs>
        <polygon id="path-1" points="0 34 156.447 34 156.447 0.985 0 0.985"></polygon>
        <polygon id="path-3" points="0.851 0.836 0.851 5.498 0.851 19.487 0.851 24.149 5.612 24.149 15.134 24.149 15.134 19.487 5.612 19.487 5.612 5.498 24.657 5.498 24.657 0.836"></polygon>
        <polygon id="path-5" points="0.373 0.161 0.373 4.823 9.896 4.823 9.896 14.149 14.656 14.149 14.656 4.823 14.656 0.161"></polygon>
    </defs>
    <g id="BillingCenterInAppLogo" stroke="none" stroke-width="1" fill="none" fill-rule="evenodd">
        <g id="Page-1" transform="translate(-4.000000, -5.000000)">
            <g id="Group-17" transform="translate(0.000000, 0.014800)">
                <path d="M40.886,22.5575 L43.366,22.5575 C45.236,22.5575 46.709,21.8215 46.709,20.1495 C46.709,18.4775 45.595,17.6695 43.528,17.6695 L40.886,17.6695 L40.886,22.5575 Z M40.886,16.5915 L43.492,16.5915 C44.732,16.5915 46.08,15.9975 46.08,14.3625 C46.08,13.8415 45.81,12.2055 43.366,12.2055 L40.886,12.2055 L40.886,16.5915 Z M39.593,11.0195 L43.385,11.0195 C45.487,11.0195 47.482,11.8105 47.482,14.2185 C47.482,15.6025 46.655,16.6815 45.236,17.0045 L45.236,17.0395 C47.015,17.1835 48.111,18.3705 48.111,20.2215 C48.111,21.0475 47.572,23.7445 43.474,23.7445 L39.593,23.7445 L39.593,11.0195 Z" id="Fill-1" fill="white"></path>
                <mask id="mask-2" fill="white">
                    <use xlink:href="#path-1"></use>
                </mask>
                <g id="Clip-4"></g>
                <path d="M50.629,23.744 L51.815,23.744 L51.815,15.333 L50.629,15.333 L50.629,23.744 Z M51.222,12.961 C50.791,12.961 50.36,12.601 50.36,12.098 C50.36,11.595 50.791,11.236 51.222,11.236 C51.654,11.236 52.085,11.595 52.085,12.098 C52.085,12.601 51.654,12.961 51.222,12.961 Z" id="Fill-3" fill="white" mask="url(#mask-2)"></path>
                <polygon id="Fill-5" fill="white" mask="url(#mask-2)" points="55.303 23.744 56.489 23.744 56.489 10.157 55.303 10.157"></polygon>
                <polygon id="Fill-6" fill="white" mask="url(#mask-2)" points="59.976 23.744 61.162 23.744 61.162 10.157 59.976 10.157"></polygon>
                <path d="M64.649,23.744 L65.835,23.744 L65.835,15.333 L64.649,15.333 L64.649,23.744 Z M65.242,12.961 C64.811,12.961 64.379,12.601 64.379,12.098 C64.379,11.595 64.811,11.236 65.242,11.236 C65.674,11.236 66.105,11.595 66.105,12.098 C66.105,12.601 65.674,12.961 65.242,12.961 Z" id="Fill-7" fill="white" mask="url(#mask-2)"></path>
                <path d="M70.1853,15.3329 C70.2393,15.7829 70.2393,16.2309 70.2393,16.6809 L70.2753,16.6809 C70.7963,15.7649 71.9823,15.1169 73.0963,15.1169 C75.2353,15.1169 76.2593,16.3219 76.2593,18.4069 L76.2593,23.7439 L75.0743,23.7439 L75.0743,19.0889 C75.0743,17.2199 74.5523,16.1959 72.7903,16.1959 C72.5393,16.1959 70.2393,16.3569 70.2393,19.4309 L70.2393,23.7439 L69.0533,23.7439 L69.0533,17.1839 C69.0533,16.7349 68.9993,15.9439 68.9633,15.3329 L70.1853,15.3329 Z" id="Fill-8" fill="white" mask="url(#mask-2)"></path>
                <path d="M83.3967,22.6659 C85.1227,22.6659 86.6497,21.3719 86.5777,19.4309 C86.5777,17.6689 85.3737,16.1959 83.3967,16.1959 C81.6357,16.1959 80.2697,17.6689 80.2697,19.4309 C80.2697,21.1919 81.6357,22.6659 83.3967,22.6659 Z M80.0537,25.4339 C80.7547,26.3679 81.9227,26.9789 83.2707,26.9789 C85.6797,26.9789 86.5417,25.4869 86.5417,23.6719 L86.5417,22.1629 L86.5057,22.1629 C85.7507,23.2949 84.5837,23.7439 83.3607,23.7439 C80.9347,23.7439 78.9757,21.9289 78.9757,19.4669 C78.9757,17.0219 80.7727,15.1169 83.2527,15.1169 C84.2597,15.1169 85.5357,15.4229 86.5057,16.7349 L86.5417,16.7349 L86.5417,15.3329 L87.7287,15.3329 L87.7287,23.6719 C87.7287,25.5049 86.9907,28.0569 83.2167,28.0569 C81.5457,28.0569 80.2517,27.5179 79.1727,26.3679 L80.0537,25.4339 Z" id="Fill-9" fill="white" mask="url(#mask-2)"></path>
                <path d="M101.658,21.7308 C100.813,23.0428 99.052,24.0668 96.95,24.0668 C93.157,24.0668 90.318,21.2458 90.318,17.3818 C90.318,13.5178 93.157,10.6958 96.95,10.6958 C98.531,10.6958 100.238,11.2888 101.353,12.7088 L100.221,13.5538 C99.717,12.7268 98.297,11.8818 96.95,11.8818 C93.678,11.8818 91.72,14.4518 91.72,17.3818 C91.72,20.3118 93.678,22.8808 96.95,22.8808 C98.279,22.8808 99.645,22.4498 100.597,20.9768 L101.658,21.7308 Z" id="Fill-10" fill="white" mask="url(#mask-2)"></path>
                <path d="M110.3044,18.8915 C110.3044,17.2915 109.2804,16.1955 107.5724,16.1955 C106.0274,16.1955 104.6254,17.5075 104.6254,18.8915 L110.3044,18.8915 Z M104.5894,19.8625 C104.7334,21.5515 106.0094,22.8815 107.6804,22.8815 C108.9384,22.8815 109.9084,22.1805 110.3764,21.4255 L111.2924,22.1805 C110.3044,23.4385 109.0644,23.9595 107.6804,23.9595 C105.1824,23.9595 103.3314,22.0725 103.3314,19.5385 C103.3314,17.0045 105.1824,15.1175 107.5724,15.1175 C110.1244,15.1355 111.5984,17.0225 111.5984,19.3225 L111.5984,19.8625 L104.5894,19.8625 Z" id="Fill-11" fill="white" mask="url(#mask-2)"></path>
                <path d="M115.2488,15.3329 C115.3028,15.7829 115.3028,16.2309 115.3028,16.6809 L115.3388,16.6809 C115.8598,15.7649 117.0458,15.1169 118.1598,15.1169 C120.2988,15.1169 121.3228,16.3219 121.3228,18.4069 L121.3228,23.7439 L120.1378,23.7439 L120.1378,19.0889 C120.1378,17.2199 119.6158,16.1959 117.8548,16.1959 C117.6028,16.1959 115.3028,16.3569 115.3028,19.4309 L115.3028,23.7439 L114.1168,23.7439 L114.1168,17.1839 C114.1168,16.7349 114.0628,15.9439 114.0268,15.3329 L115.2488,15.3329 Z" id="Fill-12" fill="white" mask="url(#mask-2)"></path>
                <path d="M128.8196,16.4115 L126.3936,16.4115 L126.3936,21.3715 C126.3936,22.6295 126.8786,22.8815 127.6156,22.8815 C128.0286,22.8815 128.4786,22.7555 128.8376,22.5575 L128.8916,23.6535 C128.4606,23.8515 127.8856,23.9595 127.2926,23.9595 C126.3936,23.9595 125.2076,23.5645 125.2076,21.7135 L125.2076,16.4115 L123.4276,16.4115 L123.4276,15.3325 L125.2076,15.3325 L125.2076,12.9605 L126.3936,12.9605 L126.3936,15.3325 L128.8196,15.3325 L128.8196,16.4115 Z" id="Fill-13" fill="white" mask="url(#mask-2)"></path>
                <path d="M137.3396,18.8915 C137.3396,17.2915 136.3146,16.1955 134.6076,16.1955 C133.0626,16.1955 131.6606,17.5075 131.6606,18.8915 L137.3396,18.8915 Z M131.6246,19.8625 C131.7676,21.5515 133.0446,22.8815 134.7156,22.8815 C135.9736,22.8815 136.9436,22.1805 137.4116,21.4255 L138.3276,22.1805 C137.3396,23.4385 136.0996,23.9595 134.7156,23.9595 C132.2176,23.9595 130.3666,22.0725 130.3666,19.5385 C130.3666,17.0045 132.2176,15.1175 134.6076,15.1175 C137.1596,15.1355 138.6326,17.0225 138.6326,19.3225 L138.6326,19.8625 L131.6246,19.8625 Z" id="Fill-14" fill="white" mask="url(#mask-2)"></path>
                <path d="M141.2766,17.9569 C141.2766,17.2019 141.2406,16.5549 141.2046,15.3329 L142.3726,15.3329 L142.3726,16.8969 L142.4086,16.8969 C142.7506,15.9979 143.6306,15.1169 145.1046,15.1169 C145.4466,15.1169 145.7346,15.1529 145.9856,15.2259 L145.7526,16.3939 C145.6086,16.3399 145.3926,16.3039 145.0686,16.3039 C143.2716,16.3039 142.4636,17.8669 142.4636,18.9989 L142.4636,23.7439 L141.2766,23.7439 L141.2766,17.9569 Z" id="Fill-15" fill="white" mask="url(#mask-2)"></path>
                <path d="M156.4465,15.6586 L155.7825,15.6586 L155.7825,11.8326 L155.7605,11.8326 L154.2235,15.6586 L153.7925,15.6586 L152.2555,11.8326 L152.2335,11.8326 L152.2335,15.6586 L151.5695,15.6586 L151.5695,11.1026 L152.5975,11.1026 L154.0245,14.5966 L155.4515,11.1026 L156.4465,11.1026 L156.4465,15.6586 Z M150.6185,11.6996 L149.1475,11.6996 L149.1475,15.6586 L148.4845,15.6586 L148.4845,11.6996 L146.9805,11.6996 L146.9805,11.1026 L150.6185,11.1026 L150.6185,11.6996 Z" id="Fill-16" fill="white" mask="url(#mask-2)"></path>
            </g>
            <g id="Group-20" transform="translate(4.000000, 5.014800)">
                <mask id="mask-4" fill="white">
                    <use xlink:href="#path-3"></use>
                </mask>
                <g id="Clip-19"></g>
                <polygon id="Fill-18" fill="white" mask="url(#mask-4)" points="-4 29 29.508 29 29.508 -4.015 -4 -4.015"></polygon>
            </g>
            <g id="Group-23" transform="translate(14.000000, 15.014800)">
                <mask id="mask-6" fill="white">
                    <use xlink:href="#path-5"></use>
                </mask>
                <g id="Clip-22"></g>
                <polygon id="Fill-21" fill="white" mask="url(#mask-6)" points="-4.478 19 19.507 19 19.507 -4.689 -4.478 -4.689"></polygon>
            </g>
        </g>
    </g>
</svg>
