package rules.Assignment.GlobalActivityAssignmentRules_dir.Activitybasedonpattern_dir
uses gw.api.database.Query
uses gw.api.database.Relop

@gw.rules.RuleDisabled
@gw.rules.RuleName("TDIC_GAA - Non-Renewal Specialists Queue")
internal class TDIC_GAANonRenewalSpecialistsQueue {
  static function doCondition(activity    :    entity.Activity) : boolean {
/*start00rule*/
return  activity.ActivityPattern == ActivityPattern.finder.getActivityPatternByCode("review_nonrenew_letter")
//        (activity.ActivityPattern == ActivityPattern.finder.getActivityPatternByCode("open_eval_issue")
//          and activity.Job.Subtype == typekey.Job.TC_RENEWAL
//          and status = non-renewing??)
  
/*end00rule*/
}

  static function doAction(activity    :    entity.Activity, actions : gw.rules.Action) {
/*start00rule*/
// DOC APPROVAL SPECIALISTS GROUP = pc-tdic:19
// NON RENEWAL SPECIALISTS QUEUE = pc-bcint3:502
var group = Query.make(Group).compare(Group#PublicID, Relop.Equals, "pc-tdic:19").select().AtMostOneRow
var queue = group.AssignableQueues.firstWhere( \ q -> q.PublicID == "pc-bcint3:502")
activity.CurrentAssignment.assignActivityToQueue(queue, group)
actions.exit() 
/*end00rule*/
  }
}
