"PolicyNBR","FirstName","M.I.","LastName","Salutation","Gender","Address1","Address2","City","State","Zip","Country","LastUpdated","Email","Phone","Ext","Fax","Title","TitleCode","FunctCode","FirmSize","IndustryCode","ADA","PersonType","PolicyIndicator","Status","SpecType","ComponentState","ComponentID","CompDesc","RenewDT","DscExpDT","PersonID","Source","SemtekStatus","D3C9C3C5D5E2C5"
"8067809401","Jung Yoon","","Chang","","","26630 Barton Rd Apt 424","","Redlands","California","92373-4325","USA","","","","","","DDS","","","0","","397861777","PH","I","P","00","CA","28","TRI COUNTY","","","397861777","","",""
"8062839601","Alan S.","","Bills","","","1055 N Hills Blvd","","Reno","Nevada","89506","USA","","","","","","DDS","","","0","","125940644","PH","I","P","00","NV","03","NORTHERN NEVADA DENTAL SOCIETY","","","125940644","","",""
"8067501701","Kristin A.","","Simkins","","","2730 Lone Tree Way Ste 2","","Antioch","California","94509","USA","","","925-757-5000","","","DDS","","","0","","823447016","PH","I","P","00","CA","11","CONTRA COSTA","","","823447016","","",""
"8037667301","Izabele Edita","","Sagat","","","1145 Lindero Canyon Rd","Ste D5","Westlake Village","California","91362-5475","USA","","","818-991-0077","","8189910022","DDS","","","0","","246678145","PH","I","P","00","CA","27","SANTA BARBARA-VENTURA","","2023-07-01","246678145","","",""
"8037667301","Izabele Edita","","Sagat","","","1145 Lindero Canyon Rd","Ste D5","Westlake Village","California","91362-5475","USA","","","818-991-0077","","8189910022","DDS","","","0","","246678145","PH","I","P","00","CA","27","SANTA BARBARA-VENTURA","","2023-07-01","246678145","","",""
"8070819801","Kerry F.","","Hahn","","","2814 E Hill St","","Long Beach","California","90804-1010","USA","","","310-640-0967","","","DDS","","","0","","921455637","PH","I","P","00","CA","29","HARBOR","","","921455637","","",""
"0000013549","John E","","Ogro","","","5 Santa Maria Way","","Orinda","California","94563","USA","","","925-254-2133","","5105683322","DDS","","","0","","155860482","PH","I","P","","CA","","*INVALID COMPONENT*","","","155860482","","",""
"0000013549","John E","","Ogro","","","5 Santa Maria Way","","Orinda","California","94563","USA","","","925-254-2133","","5105683322","DDS","","","0","","155860482","PH","I","P","","CA","","*INVALID COMPONENT*","","","155860482","","",""
"8020745601","Brian S.","","Adams","","","14700 Knopf Ct","","Morgan Hill","California","95037","USA","","","909-860-4300","","9098604191","DDS","","","0","","155810586","PH","I","P","00","CA","02","SANTA CLARA","","","155810586","","",""
"8027418301","Fatameh","","Nadershahi","","","50 Bret Harte Rd","","San Rafael","California","94901","USA","","","415-459-0114","","4154592717","DDS","","","0","","163910906","PH","I","P","00","CA","18","MARIN COUNTY","","","163910906","","",""
"8029283901","Linda M.","","Nakhla","","","2821 Crow Cayon Rd","Ste 200","San Ramon","California","94583","USA","","","925-837-8765","","9258378765","DDS","","","0","","163950390","PH","I","P","00","CA","11","CONTRA COSTA","","2020-07-01","163950390","","",""
"8029283901","Linda M.","","Nakhla","","","2821 Crow Cayon Rd","Ste 200","San Ramon","California","94583","USA","","","925-837-8765","","9258378765","DDS","","","0","","163950390","PH","I","P","00","CA","11","CONTRA COSTA","","2020-07-01","163950390","","",""
"8075530601","David H.","","Bae","","","917 S New Hampshire Ave","Unit 212","Los Angeles","California","90006-1684","USA","","","213-381-7770","","","DDS","","","0","","522456189","PH","I","P","00","CA","24","LOS ANGELES","","","522456189","","",""
"8029129401","Catherine T.","","Nguyen","","","552 E Lambert Rd","","Brea","California","92821-4116","USA","","","951-367-1345","","9513671347","DDS","","","0","","109951146","PH","I","P","00","CA","25","ORANGE COUNTY","","","109951146","","",""
"8029129401","Catherine T.","","Nguyen","","","552 E Lambert Rd","","Brea","California","92821-4116","USA","","","951-367-1345","","9513671347","DDS","","","0","","109951146","PH","I","P","00","CA","25","ORANGE COUNTY","","","109951146","","",""
"8035800201","Janice Monique","","Pronstroller","","","24838 Mill Valley Way","","Long Beach","California","90745-6452","USA","","","562-436-9234","","6265689618","DDS","","","0","","680819392","PH","I","P","00","CA","29","HARBOR","","2020-07-01","680819392","","",""
"8036123801","Khaled S.","","Fawaz","","","26375 Calle Lucana","","San Jn Capistrano","California","92675-3034","USA","","","949-582-9206","","","DDS","","","0","","070890861","PH","I","P","00","CA","25","ORANGE COUNTY","","","070890861","","",""
"8036203801","Navid D.","","Bahrami","","","2671 Zoe Ave","","Huntington Park","California","90255-4144","USA","","","323-582-2000","","3235822320","DDS","","","0","","163920286","PH","I","P","00","CA","15","BERKELEY","","","163920286","","",""
"8035800201","Janice Monique","","Pronstroller","","","24838 Mill Valley Way","","Long Beach","California","90745-6452","USA","","","562-436-9234","","6265689618","DDS","","","0","","680819392","PH","I","P","00","CA","29","HARBOR","","2020-07-01","680819392","","",""
"8036123801","Khaled S.","","Fawaz","","","26375 Calle Lucana","","San Jn Capistrano","California","92675-3034","USA","","","949-582-9206","","","DDS","","","0","","070890861","PH","I","P","00","CA","25","ORANGE COUNTY","","","070890861","","",""
"8036203801","Navid D.","","Bahrami","","","2671 Zoe Ave","","Huntington Park","California","90255-4144","USA","","","323-582-2000","","3235822320","DDS","","","0","","163920286","PH","I","P","00","CA","15","BERKELEY","","","163920286","","",""
"8035056101","Brandy L","","Egan-Solomon","","","1729 Casita Ct","","Santa Rosa","California","95409-3903","USA","","","707-526-5737","","4155589014","DDS","","","0","","163991196","PH","I","P","20","CA","08","REDWOOD EMPIRE","","","163991196","","",""
"8035056101","Brandy L","","Egan-Solomon","","","1729 Casita Ct","","Santa Rosa","California","95409-3903","USA","","","707-526-5737","","4155589014","DDS","","","0","","163991196","PH","I","P","20","CA","08","REDWOOD EMPIRE","","","163991196","","",""
"8060645901","Chau M","","Chan","","","9857 Callita St","","Arcadia","California","91007-7808","USA","","","626-285-1918","","6264620813","DDS","","","0","","665218495","PH","I","P","00","CA","30","SAN GABRIEL VALLEY","","","665218495","","",""
"8060645901","Chau M","","Chan","","","9857 Callita St","","Arcadia","California","91007-7808","USA","","","626-285-1918","","6264620813","DDS","","","0","","665218495","PH","I","P","00","CA","30","SAN GABRIEL VALLEY","","","665218495","","",""
"8064139901","Ryan N.","","Le","","","5313 Harvard Way","","Cypress","California","90630-2902","USA","","","714-718-0378","","7143890370","DMD","","","0","","269973341","PH","I","P","00","CA","25","ORANGE COUNTY","","2020-07-01","269973341","","",""
"8064139901","Ryan N.","","Le","","","5313 Harvard Way","","Cypress","California","90630-2902","USA","","","714-718-0378","","7143890370","DMD","","","0","","269973341","PH","I","P","00","CA","25","ORANGE COUNTY","","2020-07-01","269973341","","",""
"8063083001","Elena I.","","Davidson","","","443 Joaquin Ave Ste A","","San Leandro","California","94577-4902","USA","","","510-352-9212","","5103524313","DDS","","","0","","084050053","PH","I","P","00","CA","22","SOUTHERN ALAMEDA","","","084050053","","",""
"8063083001","Elena I.","","Davidson","","","443 Joaquin Ave Ste A","","San Leandro","California","94577-4902","USA","","","510-352-9212","","5103524313","DDS","","","0","","084050053","PH","I","P","00","CA","22","SOUTHERN ALAMEDA","","","084050053","","",""
"8074810301","Aldo","","Peralta","","","425 Carvalos Dr","","Chula Vista","California","91910","USA","","","","","","DDS","","","0","","801483475","PH","I","P","00","CA","26","SAN DIEGO COUNTY","","","801483475","","",""
"8074810301","Aldo","","Peralta","","","425 Carvalos Dr","","Chula Vista","California","91910","USA","","","","","","DDS","","","0","","801483475","PH","I","P","00","CA","26","SAN DIEGO COUNTY","","","801483475","","",""
"8076653501","Manpreet","","Kaur","","","5913 W Norwich Ave","","Fresno","California","93722-0458","USA","","","559-227-0027","","5592270028","DDS","","","0","","503527429","PH","I","P","00","CA","05","FRESNO-MADERA","","","503527429","","",""
"8076653501","Manpreet","","Kaur","","","5913 W Norwich Ave","","Fresno","California","93722-0458","USA","","","559-227-0027","","5592270028","DDS","","","0","","503527429","PH","I","P","00","CA","05","FRESNO-MADERA","","","503527429","","",""
"8067093501","Alison C.","","Austin","","","17742 Cassia Tree Ln","","Irvine","California","92612-2824","USA","","","","","","DDS","","","0","","795682041","PH","I","P","00","CA","25","ORANGE COUNTY","","","795682041","","",""
"8013787701","James F","","Loos","","","5848 Spinnaker Bay Dr","","Long Beach","California","90803","USA","","","562-494-7322","","5624983492","DDS","","","0","","109610362","PH","I","P","20","CA","29","HARBOR","","","109610362","","",""
"8024341001","Geralyn M","","Menold","","","18378 Meadow Ridge Rd","","Salinas","California","93907","USA","","","831-320-3850","","8316371731","DDS","","","0","","159830712","PH","I","P","20","CA","09","MONTEREY BAY","","2021-07-01","159830712","","",""
"8013787701","James F","","Loos","","","5848 Spinnaker Bay Dr","","Long Beach","California","90803","USA","","","562-494-7322","","5624983492","DDS","","","0","","109610362","PH","I","P","20","CA","29","HARBOR","","","109610362","","",""
"8024843501","David J.","","Alley","","","300 E Yorba Linda Blvd","Ste E","Placentia","California","92870-2910","USA","","","714-524-0207","","7145241062","DDS","","","0","","109880840","PH","I","P","00","CA","25","ORANGE COUNTY","","2021-07-01","109880840","","",""
"8024843501","David J.","","Alley","","","300 E Yorba Linda Blvd","Ste E","Placentia","California","92870-2910","USA","","","714-524-0207","","7145241062","DDS","","","0","","109880840","PH","I","P","00","CA","25","ORANGE COUNTY","","2021-07-01","109880840","","",""
"8031479901","Soe L.","","Wynn","","","2030 Coffee Rd Ste C4","","Modesto","California","95355-2413","USA","","","209-238-9444","","2092389446","DMD","","","0","","166971195","PH","I","P","00","CA","13","STANISLAUS","","2021-07-01","166971195","","",""
"8031479901","Soe L.","","Wynn","","","2030 Coffee Rd Ste C4","","Modesto","California","95355-2413","USA","","","209-238-9444","","2092389446","DMD","","","0","","166971195","PH","I","P","00","CA","13","STANISLAUS","","2021-07-01","166971195","","",""
"8018857301","Stephen B.","","Effron","","","1227 Lincoln Blvd Ste 203","","Santa Monica","California","90401-1710","USA","","","310-393-8300","","3104402220","DDS","","","0","","109620048","PH","I","P","00","CA","32","WESTERN LOS ANGELES","","","109620048","","",""
"8018857301","Stephen B.","","Effron","","","1227 Lincoln Blvd Ste 203","","Santa Monica","California","90401-1710","USA","","","310-393-8300","","3104402220","DDS","","","0","","109620048","PH","I","P","00","CA","32","WESTERN LOS ANGELES","","","109620048","","",""
"8032404601","Negar","","Derakhshani","","","6082 Edinger Ave Ste B","","Huntington Beach","California","92647","USA","","","714-846-2827","","7148464311","DDS","","","0","","370739426","PH","I","P","00","CA","25","ORANGE COUNTY","","2021-07-01","370739426","","",""
"8032404601","Negar","","Derakhshani","","","6082 Edinger Ave Ste B","","Huntington Beach","California","92647","USA","","","714-846-2827","","7148464311","DDS","","","0","","370739426","PH","I","P","00","CA","25","ORANGE COUNTY","","2021-07-01","370739426","","",""
"8066181901","Anoosheh","","Mazhari-Khorshidian","","","4968 Booth Cir Ste 109","","Irvine","California","92604-3370","USA","","","949-825-5354","","9495779293","","","","0","","991492969","PH","I","P","00","CA","25","ORANGE COUNTY","","2021-07-01","991492969","","",""
"8037273001","Marsha L.","","Henry","Dr.","","7410 Greenhaven Dr","Ste 105","Sacramento","California","95831-5162","USA","","","916-393-1363","","9163934853","","","","0","","042880858","PH","I","P","00","CA","03","SACRAMENTO","","2020-07-01","042880858","","",""
"8066181901","Anoosheh","","Mazhari-Khorshidian","","","4968 Booth Cir Ste 109","","Irvine","California","92604-3370","USA","","","949-825-5354","","9495779293","","","","0","","991492969","PH","I","P","00","CA","25","ORANGE COUNTY","","2021-07-01","991492969","","",""
"8037273001","Marsha L.","","Henry","Dr.","","7410 Greenhaven Dr","Ste 105","Sacramento","California","95831-5162","USA","","","916-393-1363","","9163934853","","","","0","","042880858","PH","I","P","00","CA","03","SACRAMENTO","","2020-07-01","042880858","","",""
"8074096901","Sharilyn T.","","Moniz","","","13420 Russet Leaf Ln","","San Diego","California","92129-4410","USA","","","505-363-9309","","","DDS","","","0","","030020048","PH","I","P","00","CA","26","SAN DIEGO COUNTY","","","030020048","","",""
"8074096901","Sharilyn T.","","Moniz","","","13420 Russet Leaf Ln","","San Diego","California","92129-4410","USA","","","505-363-9309","","","DDS","","","0","","030020048","PH","I","P","00","CA","26","SAN DIEGO COUNTY","","","030020048","","",""
"8075141201","Marilyn M.","","Nguyen","","","2305 S Miramonte Pl","","Ontario","California","91761-3740","USA","","","","","","DDS","","","0","","444882208","PH","I","P","00","CA","25","ORANGE COUNTY","","2022-07-01","444882208","","",""
"8075141201","Marilyn M.","","Nguyen","","","2305 S Miramonte Pl","","Ontario","California","91761-3740","USA","","","","","","DDS","","","0","","444882208","PH","I","P","00","CA","25","ORANGE COUNTY","","2022-07-01","444882208","","",""
"8076683201","Mark S.","","Aranbasich","","","7960 Rafael Rivera Way","Unit 1150","Las Vegas","Nevada","89113-5348","USA","","","702-870-5165","","7028703096","DDS","","","0","","159840026","PH","I","P","00","NV","01","CLARK COUNTY DENTAL SOCIETY","","","159840026","","",""
"8076683201","Mark S.","","Aranbasich","","","7960 Rafael Rivera Way","Unit 1150","Las Vegas","Nevada","89113-5348","USA","","","702-870-5165","","7028703096","DDS","","","0","","159840026","PH","I","P","00","NV","01","CLARK COUNTY DENTAL SOCIETY","","","159840026","","",""
"8072071401","Jonathan","","Weng","","","24 Carlsbad Ct","","So San Francisco","California","94080-4204","USA","","","408-406-4872","","","DDS","","","0","","176854643","PH","I","P","40","CA","20","MID-PENINSULA","2020-07-01","","176854643","","",""
"8072253801","Loeta E.","","Robles","","","101 Raley Blvd Ste 104","","Chico","California","95928-8352","USA","","","530-893-8913","","","DDS","","","0","","480734991","PH","I","P","00","CA","12","NORTHERN CALIFORNIA","2020-07-01","","480734991","","",""
"8076423301","Nicole R.","","Lamantia","","","4347 Nobel Dr Unit 133","","San Diego","California","92122-1587","USA","","","847-337-0475","","","DDS","","","0","","352207657","PH","I","P","30","CA","26","SAN DIEGO COUNTY","2020-07-01","","352207657","","",""
"8022810601","Roger M.","","Yamashiro","","","1261 Cabrillo Ave # 202","","Torrance","California","90501","USA","","","310-782-6877","","3107826877","DDS","","","0","","109840670","PH","I","P","00","CA","29","HARBOR","2020-07-01","","109840670","","",""
