"PolicyNBR","FirstName","M.I.","LastName","Salutation","Gender","Address1","Address2","City","State","Zip","Country","LastUpdated","Email","Phone","Ext","Fax","Title","TitleCode","FunctCode","FirmSize","IndustryCode","ADA","PersonType","PolicyIndicator","Status","SpecType","ComponentState","ComponentID","CompDesc","RenewDT","DscExpDT","PersonID","Source","SemtekStatus","D3C9C3C5D5E2C5"
"8028375401","Houtan A","","Hosseini","","","2016 E St","","Bakersfield","California","93301","USA","","","661-324-1000","","6613241194","DDS","","","0","","109940389","PH","I","P","00","CA","23","KERN COUNTY","","","109940389","","",""
"8023018501","Jeffrey T","","Jones","","","7721 E Santiago Canyon Rd","","Orange","California","92869-1829","USA","","","","","7147713589","DDS","","","0","","149840367","PH","I","P","00","CA","25","ORANGE COUNTY","","","149840367","","",""
"8028375401","Houtan A","","Hosseini","","","2016 E St","","Bakersfield","California","93301","USA","","","661-324-1000","","6613241194","DDS","","","0","","109940389","PH","I","P","00","CA","23","KERN COUNTY","","","109940389","","",""
"8023018501","Jeffrey T","","Jones","","","7721 E Santiago Canyon Rd","","Orange","California","92869-1829","USA","","","","","7147713589","DDS","","","0","","149840367","PH","I","P","00","CA","25","ORANGE COUNTY","","","149840367","","",""
"8020745601","Brian S.","","Adams","","","14700 Knopf Ct","","Morgan Hill","California","95037","USA","","","909-860-4300","","9098604191","DDS","","","0","","155810586","PH","I","P","00","CA","02","SANTA CLARA","","","155810586","","",""
"8061374501","Khai","","Ma","","","13539 Beach Blvd","","Westminster","California","92683-3282","USA","","","714-373-0235","","7143730284","DDS","","","0","","133020044","PH","I","P","00","CA","25","ORANGE COUNTY","","","133020044","","",""
"8038577301","Jacklyn R","","Kurth","","","1291 E Hillsdale Blvd","Ste 200","Foster City","California","94404-1233","USA","","","650-525-9440","","6505259490","DDS","","","0","","070970837","PH","I","P","20","CA","17","SAN MATEO COUNTY","","2021-07-01","070970837","","",""
"8069620309","Evan M.","","Kania","","","1240 High St Ste 204","","Auburn","California","95603","USA","","","530-878-5701","","","DMD","","","0","","462552196","PH","I","P","","CA","","*INVALID COMPONENT*","","","462552196","","",""
"8031098709","Igal","","Elyassi","","","6200 Wilshire Blvd","Ste 1609","Los Angeles","California","90048-5817","USA","","","323-937-5773","","3239379502","DDS","","","0","","109961301","PH","I","P","","CA","","*INVALID COMPONENT*","","","109961301","","",""
"8038577301","Jacklyn R","","Kurth","","","1291 E Hillsdale Blvd","Ste 200","Foster City","California","94404-1233","USA","","","650-525-9440","","6505259490","DDS","","","0","","070970837","PH","I","P","20","CA","17","SAN MATEO COUNTY","","2021-07-01","070970837","","",""
"8069620309","Evan M.","","Kania","","","1240 High St Ste 204","","Auburn","California","95603","USA","","","530-878-5701","","","DMD","","","0","","462552196","PH","I","P","","CA","","*INVALID COMPONENT*","","","462552196","","",""
"8036936301","Gregory W.","","Evrigenis","","","544 Pavilions Ln","","Sacramento","California","95825-4743","USA","","","916-923-9168","","9169233523","DDS","","","0","","038841476","PH","I","P","20","CA","03","SACRAMENTO","","2021-07-01","038841476","","",""
"8060800001","Tram K","","Le","","","10645 Tierrasanta Blvd","Ste B","San Diego","California","92124-2614","USA","","","951-698-4448","","9516984418","DDS","","","0","","084040116","PH","I","P","00","CA","26","SAN DIEGO COUNTY","","","084040116","","",""
"8020537701","Robert M.","","Rice","","","23321 El Toro Rd Ste B","","Lake Forest","California","92630-4825","USA","","","949-547-4868","","9496432260","DDS","","","0","","109810920","PH","I","P","00","CA","25","ORANGE COUNTY","","","109810920","","",""
"8024409501","Joyce M.","","Litch","","","87 Amorok Way","","Fremont","California","94539-6802","USA","","","408-248-1135","","4082487758","DDS","","","0","","036790451","PH","I","P","40","CA","02","SANTA CLARA","","","036790451","","",""
"8036936301","Gregory W.","","Evrigenis","","","544 Pavilions Ln","","Sacramento","California","95825-4743","USA","","","916-923-9168","","9169233523","DDS","","","0","","038841476","PH","I","P","20","CA","03","SACRAMENTO","","2021-07-01","038841476","","",""
"8020537701","Robert M.","","Rice","","","23321 El Toro Rd Ste B","","Lake Forest","California","92630-4825","USA","","","949-547-4868","","9496432260","DDS","","","0","","109810920","PH","I","P","00","CA","25","ORANGE COUNTY","","","109810920","","",""
"8024409501","Joyce M.","","Litch","","","87 Amorok Way","","Fremont","California","94539-6802","USA","","","408-248-1135","","4082487758","DDS","","","0","","036790451","PH","I","P","40","CA","02","SANTA CLARA","","","036790451","","",""
