"PolicyNBR","FirstName","M.I.","LastName","Salutation","Gender","Address1","Address2","City","State","Zip","Country","LastUpdated","Email","Phone","Ext","Fax","Title","TitleCode","FunctCode","FirmSize","IndustryCode","ADA","PersonType","PolicyIndicator","Status","SpecType","ComponentState","ComponentID","CompDesc","RenewDT","DscExpDT","PersonID","Source","SemtekStatus","D3C9C3C5D5E2C5"
"0000012037","GWPS","","897","Mr.","","25001 kstreet","","Sancramento","California","95814","USA","","","","","","","","","0","","","PH","A","P","00","CA","03","SACRAMENTO","","","","","",""
"0000012037","GWPS","","897","Mr.","","25001 kstreet","","Sancramento","California","95814","USA","","","","","","","","","0","","","PH","A","P","00","CA","03","SACRAMENTO","","","","","",""
"0000012037","GWPS","","897","Mr.","","25001 kstreet","","Sancramento","California","95814","USA","","","","","","","","","0","","","PH","A","P","00","CA","03","SACRAMENTO","","","","","",""
