"PolicyNBR","FirstName","M.I.","LastName","Salutation","Gender","Address1","Address2","City","State","Zip","Country","LastUpdated","Email","Phone","Ext","Fax","Title","TitleCode","FunctCode","FirmSize","IndustryCode","ADA","PersonType","PolicyIndicator","Status","SpecType","ComponentState","ComponentID","CompDesc","RenewDT","DscExpDT","PersonID","Source","SemtekStatus","D3C9C3C5D5E2C5"
"0000012001","GWPS","","608","Mr.","","2501 K street","","Sacramento","California","95814","USA","","","","","","","","","0","","","PH","A","P","00","CA","01","SAN FRANCISCO","","","","","",""
"0000012002","GWPS","","608","Mr.","","2501 K street","","Sacramento","California","95814","USA","","","","","","","","","0","","","PH","A","P","","CA","","*INVALID COMPONENT*","","","","","",""
"0000012001","GWPS","","608","Mr.","","2501 K street","","Sacramento","California","95814","USA","","","","","","","","","0","","","PH","A","P","00","CA","01","SAN FRANCISCO","","","","","",""
"0000012001","GWPS","","608","Mr.","","2501 K street","","Sacramento","California","95814","USA","","","","","","","","","0","","","PH","A","P","00","CA","01","SAN FRANCISCO","","","","","",""
