package rules.Assignment.GlobalActivityAssignmentRules_dir.TDIC_WC100000_dir

uses gw.api.system.BCLoggerCategory
uses org.slf4j.LoggerFactory

/**
 * GW654 - Remoove APW Activity pattern from being assigned to 'Finance AR' group
 * APW activity is assigned to 'Finance APW' group.
 * Hermia Kho 12/22/2015
*/
@gw.rules.RuleName("TDIC_GAAR120000 - Activity Pattern Assigned to Finance AR")
internal class TDIC_GAAR120000ActivityPatternAssignedtoFinanceAR {
  static function doCondition(activity  :  entity.Activity) : boolean {
/*start00rule*/
return activity.ActivityPattern == ActivityPattern.FundsTransfer

/*end00rule*/
}

  static function doAction(activity  :  entity.Activity, actions : gw.rules.Action) {
/*start00rule*/
var _logger = LoggerFactory.getLogger("Rules")
_logger.debug("TDIC_GAAR120000 : Activity Pattern Assign to Finance AR found " + activity.ActivityPattern)
var groupName = gw.command.demo.GeneralUtil.findGroupByUserName("Finance AR")
_logger.debug("TDIC_GAAR120000 : groupName = " + groupName)
if (activity.assignGroup(groupName)){
  _logger.debug("TDIC_GAAR120000 : assignGroup successful" + activity.AssignedGroup.DisplayName)
  if (activity.assignUserByRoundRobin(false, activity.AssignedGroup)){
    _logger.debug("TDIC_GAAR120000 : assignUserByRoundRobin successful " +  activity.AssignedUser.DisplayName)
    actions.exit()
  } else {
    _logger.warn("TDIC_GAAR120000 : assignUserByRoundRobin failed after successful assignGroup.")
  }
}
else {
  _logger.warn("TDIC_GAAR120000 : assignGroup failed")
} 
/*end00rule*/
  }
}
