package rules.Assignment.GlobalActivityAssignmentRules_dir.TDIC_WC100000_dir

uses gw.api.system.BCLoggerCategory
uses gw.api.database.Query
uses org.slf4j.LoggerFactory

@gw.rules.RuleDisabled
@gw.rules.RuleName("TDIC_GAAR130000 - Activity Pattern Assigned to Underwriting Admin")
internal class TDIC_GAAR130000ActivityPatternAssignedtoUnderwritingAdmin {
  static function doCondition(activity : entity.Activity) : boolean {
/*start00rule*/
//return (activity.ActivityPattern == ActivityPattern.Approval and activity typeis DisbApprActivity) or
return false
/*end00rule*/
}

  static function doAction(activity : entity.Activity, actions : gw.rules.Action) {
/*start00rule*/
var _logger = LoggerFactory.getLogger("Rules")
_logger.debug ("TDIC_GAAR130000 : Disbursement Approval activity found. " + activity.Subtype.DisplayName)
var groupName = gw.command.demo.GeneralUtil.findGroupByUserName("Underwriting Admin")
_logger.debug ("TDIC_GAAR130000 : Assign to groupName = " + groupName)
/*if (activity.assignGroup(groupName)){
  _logger.debug("TDIC_GAAR130000 : assignGroup successful " + activity.AssignedGroup.DisplayName)
  if (activity.ActivityPattern == ActivityPattern.OfferedPaymentPlanMismatchActivity_TDIC) {
    // Assign activity to JennyB
    var credential = Query.make(Credential).compare(Credential#UserName, Equals, "JennyB").select().AtMostOneRow;
    var user = Query.make(User).compare(User#Credential, Equals, credential).select().AtMostOneRow;
    activity.AssignedUser = user;
    _logger.debug("TDIC_GAAR130000 : assign to JennyB successful " + activity.AssignedUser.DisplayName)
    actions.exit()
  } else {
    if (activity.assignUserByRoundRobin(false, activity.AssignedGroup)) {
      _logger.debug("TDIC_GAAR130000 : assignUserByRoundRobin successful " + activity.AssignedUser.DisplayName)
      actions.exit()
    } else {
      _logger.warn("TDIC_GAAR130000 : assignUserByRoundRobin failed after successful assignGroup.")
    }
  }
} else {
  _logger.warn("TDIC_GAAR130000 : assignGroup failed.")
}*/


/*end00rule*/
  }
}
