package rules.Preupdate.DisbursementPreupdate_dir.TDIC_WC100000_dir

uses gw.api.system.BCLoggerCategory
uses org.slf4j.LoggerFactory

@gw.rules.RuleName("TDIC_DSPU120000 - Create Disbursement with Payment Method Check")
internal class TDIC_DSPU120000CreateDisbursementwithPaymentMethodCheck {
  static function doCondition(disbursement : entity.Disbursement) : boolean {
/*start00rule*/
return disbursement.New && disbursement typeis AccountDisbursement
/*end00rule*/
}

  static function doAction(disbursement : entity.Disbursement, actions : gw.rules.Action) {
/*start00rule*/
/**
 * US1048 - All disbursements should have the payment method set to Check. OOTB sets it to the payment method of the
 * account's default payment instrument.
 * 1/22/2015 Alvin Lee
 */
LoggerFactory.getLogger("Rules").debug("Account Disbursement Created - Set Payment Method to Check")
var acctDisbursement = disbursement as AccountDisbursement
acctDisbursement.PaymentInstrument = acctDisbursement.Account.PaymentInstruments.firstWhere( \ instrument -> instrument.PaymentMethod == PaymentMethod.TC_CHECK) 
/*end00rule*/
  }
}
