package rules.EventMessage.EventFired_dir.TDIC_ALL100000_dir.TDIC_EFR120000HPExstream_dir.TDIC_EFR131000ReminderNotice_dir
uses tdic.bc.integ.plugins.hpexstream.util.TDIC_BCExstreamHelper

@gw.rules.RuleName("TDIC_EFR131100 - Policy DelinquencyProcess")
internal class TDIC_EFR131100PolicyDelinquencyProcess {
  static function doCondition(messageContext   :   entity.MessageContext) : boolean {
/*start00rule*/
return messageContext.Root typeis PolicyDlnqProcess
/*end00rule*/
}

  static function doAction(messageContext   :   entity.MessageContext, actions : gw.rules.Action) {
/*start00rule*/
(new TDIC_BCExstreamHelper()).createBatchMessageForPolicyDlnqProcess(messageContext) 
/*end00rule*/
  }
}
