package rules.Assignment.GlobalTroubleTicketAssignmentRules_dir.TDIC_WC100000_dir

uses gw.api.system.BCLoggerCategory
uses org.slf4j.LoggerFactory

@gw.rules.RuleName("TDIC_GTTA110000 - Assign TT to Creator")
internal class TDIC_GTTA110000AssignTTtoCreator {
  static function doCondition(troubleTicket  :  entity.TroubleTicket) : boolean {
/*start00rule*/
return true
/*end00rule*/
}

  static function doAction(troubleTicket  :  entity.TroubleTicket, actions : gw.rules.Action) {
/*start00rule*/
/**
 * US711 - Assign Trouble Tickets
 * 02/11/2015 Hermia Kho
 *
 * Trouble Ticket assigned to creator.
 */
var _logger = LoggerFactory.getLogger("Rules")
_logger.debug ("TDIC_GTTA110000 : GlobalTroubleTicketAssignmentRule begins.")
if (troubleTicket.assignToCreator(troubleTicket)) {
  _logger.debug ("TDIC_GTTA110000 : TT assignToCreator successful " + troubleTicket.AssignedUser.DisplayName)
  actions.exit()
} else {
  _logger.warn ("TDIC_GTTA110000 : Trouble Ticket assignToCreator failed")
} 
/*end00rule*/
  }
}
