package rules.Assignment.GlobalTroubleTicketAssignmentRules_dir.TDIC_WC100000_dir

uses org.slf4j.LoggerFactory

/**
 * US711 - Assign Trouble Tickets
 * 02/11/2015 Hermia Kho
 *
 * Copied from OOTB Default rule
 */

@gw.rules.RuleName("TDIC_GTTA190000 - Default")
internal class TDIC_GTTA190000Default {
  static function doCondition(troubleTicket  :  entity.TroubleTicket) : boolean {
/*start00rule*/
return  troubleTicket.AssignedUser == null
/*end00rule*/
}

  static function doAction(troubleTicket  :  entity.TroubleTicket, actions : gw.rules.Action) {
/*start00rule*/
if (troubleTicket.CurrentAssignment.assignGroupByRoundRobin(GroupType.TC_GENERAL, false, troubleTicket.AssignedGroup)) {
  LoggerFactory.getLogger("Rules").debug("TDIC_GTTA190000 : Default AssignGroupByRoundRobin successful : "
    + troubleTicket.AssignedUser.DisplayName);
  actions.exit();
} else {
  LoggerFactory.getLogger("Rules").warn("TDIC_GTTA190000 : Global Activity Assignment rules could not assign Trouble Ticket")
} 
/*end00rule*/
  }
}
