package rules.EventMessage.EventFired_dir.TDIC_ALL100000_dir


@gw.rules.RuleName("EFR3100 - Lawson Outgoing Payment")
internal class EFR3100LawsonOutgoingPayment {
  static function doCondition(messageContext  :  entity.MessageContext) : boolean {
/*start00rule*/
return messageContext.DestID == 24
/*end00rule*/
}

  static function doAction(messageContext  :  entity.MessageContext, actions : gw.rules.Action) {
/*start00rule*/
 
/*end00rule*/
  }
}
