package rules.Preupdate.ChargePreupdate_dir.TDIC_WC100000_dir

uses java.util.Date
uses gw.api.locale.DisplayKey

@gw.rules.RuleName("TDIC_CHPU110000 - Charge Hold Applied History")
internal class TDIC_CHPU110000ChargeHoldAppliedHistory {
  static function doCondition(charge : entity.Charge) : boolean {
/*start00rule*/
return !charge.New && charge.isHeld() && charge.getOriginalValue(Charge#HoldStatus) == typekey.ChargeHoldStatus.TC_NONE
/*end00rule*/
}

  static function doAction(charge : entity.Charge, actions : gw.rules.Action) {
/*start00rule*/
/**
 * US71 - View History - Account
 * US78 - View History - Policy
 * 08/21/2014 Alvin Lee
 *
 * Charge Hold Applied History Event
 */
if (charge.PolicyPeriod == null) {
  // Account-level charge
  charge.OwnerAccount.addHistoryFromGosu(Date.CurrentDate, HistoryEventType.TC_CHARGEHOLDAPPLIED,
      DisplayKey.get("TDIC.AccountHistory.ChargeHoldApplied.Description", charge), null, null, false)
}
else {
  // Policy-level charge
  charge.OwnerAccount.addHistoryFromGosu(Date.CurrentDate, HistoryEventType.TC_CHARGEHOLDAPPLIED,
      DisplayKey.get("TDIC.AccountHistory.ChargeHoldApplied.DescriptionWithPeriod", charge, charge.PolicyPeriod.PolicyNumberLong),
      null, null, false)

  charge.PolicyPeriod.addHistoryFromGosu(Date.CurrentDate, HistoryEventType.TC_CHARGEHOLDAPPLIED,
      DisplayKey.get("TDIC.PolicyHistory.ChargeHoldApplied", charge), null, null, false)
}
/*end00rule*/
  }
}
