package rules.EventMessage.EventFired_dir.TDIC_OnBase_dir

uses acc.onbase.api.si.PolicyMessageBuilder
uses gw.api.gx.GXOptions

@gw.rules.RuleDisabled
@gw.rules.RuleName("AccountChanged")
internal class AccountChanged {
  static function doCondition(messageContext: entity.MessageContext): boolean {
/*start00rule*/
    return messageContext.EventName == "AccountChanged"
/*end00rule*/
  }

  static function doAction(messageContext: entity.MessageContext, actions: gw.rules.Action) {
/*start00rule*/
    var account = messageContext.Root as Account
    var options = new GXOptions(){:Verbose = true}
    var model = new acc.onbase.api.si.model.accountmodel.Account(account, options)
    if (model.$ShouldSend) {
      var documents = account.Documents.where(\doc -> doc.Policy == null)
      if(documents.size() > 0) {
        var builder = new PolicyMessageBuilder(messageContext.EventName)
        builder.addMessagePart('account', model)
        //for all documents linked to the account; update producer codes for documents that are only linked to this account
        builder.addDocumentIds(documents)
        builder.addValueListAsMessagePart('SyncDocuments', builder.Sync)
        builder.addValueListAsMessagePart('AsyncDocuments', builder.Async)
        messageContext.createMessage(builder.Message.asUTFString())
      }
    } 
/*end00rule*/
  }
}
