Activity Patterns
type,data-set,entityid,type,category,code,subject,description,mandatory,priority,recurring,targetdays,targetincludedays,targetstartpoint,escalationdays,escalationincldays,escalationstartpt,automatedonly,command
ActivityPattern,0,sample_pattern:1,general,reminder,notification,${AdminData.ActivityPattern.Subject.Notification},${AdminData.ActivityPattern.Description.Notification},FALSE,normal,FALSE,10,businessdays,activitycreation,20,businessdays,activitycreation,FALSE
ActivityPattern,0,sample_pattern:2,approval,approval,approval,${AdminData.ActivityPattern.Subject.Approval},${AdminData.ActivityPattern.Description.Approval},TRUE,normal,FALSE,2,businessdays,activitycreation,2,businessdays,activitycreation,TRUE