package rules.Assignment.GlobalActivityAssignmentRules_dir

uses gw.assignment.AssignmentUtil
uses gw.pl.logging.LoggerCategory
uses org.slf4j.LoggerFactory

/**
 * US884
 * Shane Sheridan 03/18/2015
*/

@gw.rules.RuleName("TDIC_GAA - Assign to Default User")
internal class TDIC_GAAAssigntoDefaultUser {
  static function doCondition(activity  :  entity.Activity) : boolean {
/*start00rule*/
return true
/*end00rule*/
}

  static function doAction(activity  :  entity.Activity, actions : gw.rules.Action) {
/*start00rule*/
var logger= LoggerFactory.getLogger("Rules")
logger.warn("Activity could not be assigned according to rules; assigning to Default User")

var defaultUser = AssignmentUtil.DefaultUser
var isAssignmentSuccessful = activity.CurrentAssignment.assign(defaultUser.DefaultAssignmentGroup, defaultUser)
if(isAssignmentSuccessful){
  actions.exit()
}
else{
  logger.warn("Activity could not be assigned to Default User")
} 
/*end00rule*/
  }
}
