<?xml version="1.0" encoding="UTF-8"?>
<svg width="249px" height="43px" viewBox="0 0 249 43" version="1.1" xmlns="http://www.w3.org/2000/svg" xmlns:xlink="http://www.w3.org/1999/xlink">
    <title>BillingCenterLoginLogo</title>
    <defs>
        <polygon id="path-1" points="0 36.9004 240.887 36.9004 240.887 0.0004 0 0.0004"></polygon>
    </defs>
    <g id="BillingCenterLoginLogo" stroke="none" stroke-width="1" fill="none" fill-rule="evenodd">
        <g id="Page-1" transform="translate(4.000000, 3.000000)">
            <path d="M2.667,25.5637 L7.78,25.5637 C11.633,25.5637 14.671,24.0447 14.671,20.5987 C14.671,17.1537 12.374,15.4867 8.113,15.4867 L2.667,15.4867 L2.667,25.5637 Z M2.667,13.2637 L8.039,13.2637 C10.596,13.2637 13.374,12.0417 13.374,8.6697 C13.374,7.5947 12.818,4.2237 7.78,4.2237 L2.667,4.2237 L2.667,13.2637 Z M0,1.7787 L7.817,1.7787 C12.151,1.7787 16.265,3.4097 16.265,8.3737 C16.265,11.2257 14.56,13.4497 11.633,14.1157 L11.633,14.1897 C15.301,14.4867 17.561,16.9317 17.561,20.7477 C17.561,22.4517 16.449,28.0087 8.003,28.0087 L0,28.0087 L0,1.7787 Z" id="Fill-1" fill="#006D9A"></path>
            <mask id="mask-2" fill="white">
                <use xlink:href="#path-1"></use>
            </mask>
            <g id="Clip-4"></g>
            <path d="M22.752,28.0094 L25.196,28.0094 L25.196,10.6704 L22.752,10.6704 L22.752,28.0094 Z M23.974,5.7804 C23.085,5.7804 22.196,5.0394 22.196,4.0014 C22.196,2.9644 23.085,2.2234 23.974,2.2234 C24.863,2.2234 25.753,2.9644 25.753,4.0014 C25.753,5.0394 24.863,5.7804 23.974,5.7804 Z" id="Fill-3" fill="#006D9A" mask="url(#mask-2)"></path>
            <polygon id="Fill-5" fill="#006D9A" mask="url(#mask-2)" points="32.386 28.0094 34.83 28.0094 34.83 0.0004 32.386 0.0004"></polygon>
            <polygon id="Fill-6" fill="#006D9A" mask="url(#mask-2)" points="42.02 28.0094 44.464 28.0094 44.464 0.0004 42.02 0.0004"></polygon>
            <path d="M51.654,28.0094 L54.098,28.0094 L54.098,10.6704 L51.654,10.6704 L51.654,28.0094 Z M52.876,5.7804 C51.986,5.7804 51.097,5.0394 51.097,4.0014 C51.097,2.9644 51.986,2.2234 52.876,2.2234 C53.765,2.2234 54.653,2.9644 54.653,4.0014 C54.653,5.0394 53.765,5.7804 52.876,5.7804 Z" id="Fill-7" fill="#006D9A" mask="url(#mask-2)"></path>
            <path d="M63.0654,10.6701 C63.1754,11.5971 63.1754,12.5231 63.1754,13.4491 L63.2504,13.4491 C64.3244,11.5601 66.7694,10.2261 69.0664,10.2261 C73.4754,10.2261 75.5864,12.7081 75.5864,17.0061 L75.5864,28.0091 L73.1424,28.0091 L73.1424,18.4131 C73.1424,14.5611 72.0674,12.4481 68.4364,12.4481 C67.9184,12.4481 63.1754,12.7821 63.1754,19.1171 L63.1754,28.0091 L60.7314,28.0091 L60.7314,14.4861 C60.7314,13.5601 60.6204,11.9301 60.5454,10.6701 L63.0654,10.6701 Z" id="Fill-8" fill="#006D9A" mask="url(#mask-2)"></path>
            <path d="M90.2998,25.7863 C93.8568,25.7863 97.0048,23.1183 96.8578,19.1173 C96.8578,15.4863 94.3748,12.4483 90.2998,12.4483 C86.6688,12.4483 83.8528,15.4863 83.8528,19.1173 C83.8528,22.7483 86.6688,25.7863 90.2998,25.7863 Z M83.4078,31.4913 C84.8538,33.4183 87.2618,34.6783 90.0398,34.6783 C95.0048,34.6783 96.7828,31.6023 96.7828,27.8603 L96.7828,24.7493 L96.7088,24.7493 C95.1528,27.0833 92.7448,28.0093 90.2258,28.0093 C85.2238,28.0093 81.1858,24.2663 81.1858,19.1913 C81.1858,14.1523 84.8908,10.2253 90.0028,10.2253 C92.0778,10.2253 94.7078,10.8553 96.7088,13.5593 L96.7828,13.5593 L96.7828,10.6703 L99.2288,10.6703 L99.2288,27.8603 C99.2288,31.6403 97.7088,36.9003 89.9288,36.9003 C86.4838,36.9003 83.8168,35.7893 81.5928,33.4183 L83.4078,31.4913 Z" id="Fill-9" fill="#006D9A" mask="url(#mask-2)"></path>
            <path d="M127.9443,23.8596 C126.2023,26.5636 122.5723,28.6756 118.2373,28.6756 C110.4203,28.6756 104.5663,22.8596 104.5663,14.8936 C104.5663,6.9286 110.4203,1.1116 118.2373,1.1116 C121.4973,1.1116 125.0163,2.3346 127.3143,5.2606 L124.9803,7.0026 C123.9423,5.2976 121.0153,3.5566 118.2373,3.5566 C111.4943,3.5566 107.4563,8.8546 107.4563,14.8936 C107.4563,20.9326 111.4943,26.2306 118.2373,26.2306 C120.9783,26.2306 123.7953,25.3406 125.7573,22.3036 L127.9443,23.8596 Z" id="Fill-10" fill="#006D9A" mask="url(#mask-2)"></path>
            <path d="M145.7686,18.006 C145.7686,14.708 143.6566,12.448 140.1366,12.448 C136.9516,12.448 134.0616,15.153 134.0616,18.006 L145.7686,18.006 Z M133.9876,20.007 C134.2836,23.489 136.9146,26.231 140.3596,26.231 C142.9526,26.231 144.9536,24.785 145.9166,23.23 L147.8056,24.785 C145.7686,27.379 143.2116,28.453 140.3596,28.453 C135.2096,28.453 131.3936,24.564 131.3936,19.34 C131.3936,14.115 135.2096,10.226 140.1366,10.226 C145.3976,10.263 148.4356,14.152 148.4356,18.895 L148.4356,20.007 L133.9876,20.007 Z" id="Fill-11" fill="#006D9A" mask="url(#mask-2)"></path>
            <path d="M155.9609,10.6701 C156.0709,11.5971 156.0709,12.5231 156.0709,13.4491 L156.1459,13.4491 C157.2199,11.5601 159.6649,10.2261 161.9619,10.2261 C166.3709,10.2261 168.4819,12.7081 168.4819,17.0061 L168.4819,28.0091 L166.0379,28.0091 L166.0379,18.4131 C166.0379,14.5611 164.9629,12.4481 161.3329,12.4481 C160.8139,12.4481 156.0709,12.7821 156.0709,19.1171 L156.0709,28.0091 L153.6259,28.0091 L153.6259,14.4861 C153.6259,13.5601 153.5159,11.9301 153.4409,10.6701 L155.9609,10.6701 Z" id="Fill-12" fill="#006D9A" mask="url(#mask-2)"></path>
            <path d="M183.9355,12.8937 L178.9345,12.8937 L178.9345,23.1187 C178.9345,25.7117 179.9345,26.2307 181.4545,26.2307 C182.3055,26.2307 183.2325,25.9707 183.9725,25.5637 L184.0835,27.8237 C183.1955,28.2317 182.0095,28.4537 180.7875,28.4537 C178.9345,28.4537 176.4895,27.6387 176.4895,23.8227 L176.4895,12.8937 L172.8215,12.8937 L172.8215,10.6697 L176.4895,10.6697 L176.4895,5.7807 L178.9345,5.7807 L178.9345,10.6697 L183.9355,10.6697 L183.9355,12.8937 Z" id="Fill-13" fill="#006D9A" mask="url(#mask-2)"></path>
            <path d="M201.499,18.006 C201.499,14.708 199.387,12.448 195.867,12.448 C192.682,12.448 189.792,15.153 189.792,18.006 L201.499,18.006 Z M189.718,20.007 C190.014,23.489 192.645,26.231 196.09,26.231 C198.683,26.231 200.684,24.785 201.647,23.23 L203.536,24.785 C201.499,27.379 198.942,28.453 196.09,28.453 C190.94,28.453 187.124,24.564 187.124,19.34 C187.124,14.115 190.94,10.226 195.867,10.226 C201.128,10.263 204.166,14.152 204.166,18.895 L204.166,20.007 L189.718,20.007 Z" id="Fill-14" fill="#006D9A" mask="url(#mask-2)"></path>
            <path d="M209.6152,16.0793 C209.6152,14.5233 209.5412,13.1893 209.4672,10.6703 L211.8752,10.6703 L211.8752,13.8933 L211.9492,13.8933 C212.6532,12.0413 214.4692,10.2253 217.5072,10.2253 C218.2112,10.2253 218.8032,10.3003 219.3222,10.4483 L218.8412,12.8563 C218.5442,12.7453 218.0992,12.6713 217.4322,12.6713 C213.7272,12.6713 212.0602,15.8933 212.0602,18.2273 L212.0602,28.0093 L209.6152,28.0093 L209.6152,16.0793 Z" id="Fill-15" fill="#006D9A" mask="url(#mask-2)"></path>
            <path d="M240.8867,11.342 L239.5187,11.342 L239.5187,3.454 L239.4737,3.454 L236.3047,11.342 L235.4147,11.342 L232.2467,3.454 L232.2007,3.454 L232.2007,11.342 L230.8327,11.342 L230.8327,1.95 L232.9527,1.95 L235.8947,9.154 L238.8347,1.95 L240.8867,1.95 L240.8867,11.342 Z M228.8727,3.181 L225.8407,3.181 L225.8407,11.342 L224.4737,11.342 L224.4737,3.181 L221.3727,3.181 L221.3727,1.95 L228.8727,1.95 L228.8727,3.181 Z" id="Fill-16" fill="#006D9A" mask="url(#mask-2)"></path>
        </g>
    </g>
</svg>
