package rules.EventMessage.EventFired_dir.TDIC_ALL100000_dir.EFR3100LawsonOutgoingPayment_dir.EFR3200OutgoingDisbPmnt_dir
uses tdic.bc.integ.plugins.outgoingpayment.helper.TDIC_OutgoingPaymentHelper
uses gw.api.system.BCLoggerCategory
uses org.slf4j.LoggerFactory

@gw.rules.RuleName("EFR3300 - OutgoingPayment Added")
internal class EFR3300OutgoingPaymentAdded {
  static function doCondition(messageContext    :    entity.MessageContext) : boolean {
/*start00rule*/
return messageContext.EventName == TDIC_OutgoingPaymentHelper.OUTGOING_PAYMENT_ADDED
/*end00rule*/
}

  static function doAction(messageContext    :    entity.MessageContext, actions : gw.rules.Action) {
/*start00rule*/
/**
 * US570 - GL / Lawson Outgoing Payment Integration
 * 02/05/2015 Alvin Lee
 *
 * Event Fired rules to process Outgoing Payment entities being created.
 */
var logger = LoggerFactory.getLogger("OUTGOING_PAYMENT")
var disbPayment = messageContext.Root as entity.OutgoingDisbPmnt
logger.debug("TDIC_EFR151100 - OutgoingPayment Added - OutgoingDisbPmnt added - PublicID: " + disbPayment.PublicID)
messageContext.createMessage(TDIC_OutgoingPaymentHelper.mapOutgoingPaymentToWritableBeanModel(disbPayment).asUTFString()) 
/*end00rule*/
  }
}
